<?xml version="1.0" encoding="utf-8"?>
<!-- Generator: Adobe Illustrator 21.1.0, SVG Export Plug-In . SVG Version: 6.00 Build 0)  -->
<svg version="1.1" id="Livello_1" xmlns="http://www.w3.org/2000/svg" xmlns:xlink="http://www.w3.org/1999/xlink" x="0px" y="0px"
	 viewBox="0 0 13 2" style="enable-background:new 0 0 13 2;" xml:space="preserve">
<style type="text/css">
	.st0{fill:#C1C1C1;}
</style>
<path class="st0" d="M12.4,0h-0.7H7.5H0.6C0.3,0,0,0.3,0,0.6v0.8C0,1.7,0.3,2,0.6,2h6.9h3.4h1.5C12.7,2,13,1.7,13,1.4V0.6
	C13,0.3,12.7,0,12.4,0z"/>
</svg>
