<svg xmlns="http://www.w3.org/2000/svg" width="5.5" height="11.969" viewBox="0 0 5.5 11.969">
  <metadata><?xpacket begin="﻿" id="W5M0MpCehiHzreSzNTczkc9d"?>
<x:xmpmeta xmlns:x="adobe:ns:meta/" x:xmptk="Adobe XMP Core 5.6-c138 79.159824, 2016/09/14-01:09:01        ">
   <rdf:RDF xmlns:rdf="http://www.w3.org/1999/02/22-rdf-syntax-ns#">
      <rdf:Description rdf:about=""/>
   </rdf:RDF>
</x:xmpmeta>
                                                                                                    
                                                                                                    
                                                                                                    
                                                                                                    
                                                                                                    
                                                                                                    
                                                                                                    
                                                                                                    
                                                                                                    
                                                                                                    
                                                                                                    
                                                                                                    
                                                                                                    
                                                                                                    
                                                                                                    
                                                                                                    
                                                                                                    
                                                                                                    
                                                                                                    
                                                                                                    
                           
<?xpacket end="w"?></metadata>
<defs>
    <style>
      .cls-1 {
        fill: #fff;
        fill-rule: evenodd;
      }
    </style>
  </defs>
  <path id="FB" class="cls-1" d="M648.021,262.473H646.4v6H643.93v-6h-1.172v-2.109h1.172V259a2.321,2.321,0,0,1,2.487-2.5l1.825,0.008v2.047h-1.324a0.5,0.5,0,0,0-.523.575v1.241h1.842Zm0,0" transform="translate(-642.75 -256.5)"/>
</svg>
