<?xml version="1.0" encoding="utf-8"?>
<!-- Generator: Adobe Illustrator 22.0.0, SVG Export Plug-In . SVG Version: 6.00 Build 0)  -->
<svg version="1.1" id="Livello_1" xmlns="http://www.w3.org/2000/svg" xmlns:xlink="http://www.w3.org/1999/xlink" x="0px" y="0px"
	 viewBox="0 0 43 43" style="enable-background:new 0 0 43 43;" xml:space="preserve">
<style type="text/css">
	.st0{fill:#333333;}
</style>
<g>
	<path class="st0" d="M21.5,43C9.6,43,0,33.4,0,21.5S9.6,0,21.5,0S43,9.6,43,21.5S33.4,43,21.5,43z M21.5,3C11.3,3,3,11.3,3,21.5
		S11.3,40,21.5,40S40,31.7,40,21.5S31.7,3,21.5,3z"/>
</g>
<g>
	<path class="st0" d="M21.5,34.5c-1.1,0-2-0.9-2-2v-12c0-1.1,0.9-2,2-2s2,0.9,2,2v12C23.5,33.6,22.6,34.5,21.5,34.5z"/>
</g>
<g>
	<path class="st0" d="M21.5,15.1c-1.1,0-2-0.9-2-2v-2c0-1.1,0.9-2,2-2s2,0.9,2,2v2C23.5,14.2,22.6,15.1,21.5,15.1z"/>
</g>
</svg>
