<?xml version="1.0" encoding="utf-8"?>
<!-- Generator: Adobe Illustrator 20.1.0, SVG Export Plug-In . SVG Version: 6.00 Build 0)  -->
<svg version="1.1" id="Layer_1" xmlns="http://www.w3.org/2000/svg" xmlns:xlink="http://www.w3.org/1999/xlink" x="0px" y="0px"
	 viewBox="0 0 24 24" style="enable-background:new 0 0 24 24;" xml:space="preserve">
<style type="text/css">
	.st0{fill:#FFFFFF;}
</style>
<path class="st0" d="M14.8,12l8.6-8.6c0.8-0.8,0.8-2,0-2.8c-0.8-0.8-2-0.8-2.8,0L12,9.2L3.4,0.6c-0.8-0.8-2-0.8-2.8,0
	c-0.8,0.8-0.8,2,0,2.8L9.2,12l-8.6,8.6c-0.8,0.8-0.8,2,0,2.8C1,23.8,1.5,24,2,24s1-0.2,1.4-0.6l8.6-8.6l8.6,8.6
	C21,23.8,21.5,24,22,24s1-0.2,1.4-0.6c0.8-0.8,0.8-2,0-2.8L14.8,12z"/>
</svg>
