<?xml version="1.0" encoding="utf-8"?>
<!-- Generator: Adobe Illustrator 20.1.0, SVG Export Plug-In . SVG Version: 6.00 Build 0)  -->
<svg version="1.1" id="Gruppo_7" xmlns="http://www.w3.org/2000/svg" xmlns:xlink="http://www.w3.org/1999/xlink" x="0px" y="0px"
	 viewBox="0 0 82 82" style="enable-background:new 0 0 82 82;" xml:space="preserve">
<style type="text/css">
	.st0{fill:#FFFFFF;stroke:#CC9738;stroke-width:2;}
	.st1{fill:none;enable-background:new    ;}
	.st2{fill:#CCA137;}
</style>
<circle id="Ellipse_923_copy_2" class="st0" cx="41" cy="41" r="40"/>
<path class="st1" d="z"/>
<g>
	<path class="st2" d="M18.4,25.2c8.7,0,13,0,19.2,0c6,0,6.9,3,10.5,3c1.1,0,2.2-0.2,3.5-0.9l-0.8-0.8c-0.1,0-0.1,0.1-0.2,0.1
		c-0.2,0.1-0.5,0.2-0.7,0.2C45.3,28,44.6,24,37.6,24c-6.3,0-10.8,0-20.1,0C17.6,24.3,18,24.9,18.4,25.2 M24.1,32h13.2
		c1.4,0-0.4-1.4-1.4-1.4H22.4C22.7,31.2,23.4,31.7,24.1,32 M64.4,18.5c-1.6,0.9-7.2,4.2-11.7,6.4l1.2,1.2
		C57.7,23.5,64.4,18.5,64.4,18.5 M54.9,30.7l1.8-1.7l1.2,1.2c3.4-5.4,6.5-11.7,6.5-11.7s-3.9,3.8-8.5,8.3L19.2,61.9L48,31.2
		c0.1-0.1,0.1-0.1,0.1-0.2c0-0.2-0.2-0.4-0.4-0.4c-0.1,0-0.2,0-0.3,0.1L18.3,62.1V25.8c-0.4-0.4-0.7-1-0.8-1.3l0,0v39.1h0.8h1.1h38
		c-1-0.2-1.9-0.6-1.9-0.6l-35.4,0L49.2,36c-0.9,1.9-0.8,3.8-0.8,7c0,2.7,0,9.2,0,11.5c0,0.9,0.7,2.3,1.8,3.7v-12
		c0-0.6,1.8-0.1,1.8,1.9v12c0.6,0.5,1.2,1,1.8,1.4V49.1c0-0.7,1.8,0.1,1.8,1.3v12c0.6,0.2,1.2,0.4,1.8,0.5c0-9.4,0-14,0-20.2
		c0-6.8-4.1-6.7-2.9-11.2C54.6,31.3,54.9,30.7,54.9,30.7 M31.8,27.6H20c0,0.4,0.8,1.3,1.4,1.7h12.2C34.8,29.2,33.3,27.6,31.8,27.6
		 M28.2,34.3h12.3c1.2,0-0.2-0.9-1.1-0.9H26.7C27,33.8,27.5,34.1,28.2,34.3"/>
</g>
</svg>
