<svg id="ico" xmlns="http://www.w3.org/2000/svg" width="44" height="44" viewBox="0 0 44 44">
    <metadata><?xpacket begin="﻿" id="W5M0MpCehiHzreSzNTczkc9d"?>
        <x:xmpmeta xmlns:x="adobe:ns:meta/" x:xmptk="Adobe XMP Core 5.6-c138 79.159824, 2016/09/14-01:09:01        ">
            <rdf:RDF xmlns:rdf="http://www.w3.org/1999/02/22-rdf-syntax-ns#">
                <rdf:Description rdf:about=""/>
            </rdf:RDF>
        </x:xmpmeta>





















        <?xpacket end="w"?></metadata>
    <defs>
        <style>
            .cls-1 {
            fill: #fff;
            stroke: #c1c1c1;
            stroke-width: 1px;
            }

            .cls-2 {
            fill: #c1c1c1;
            fill-rule: evenodd;
            }
        </style>
    </defs>
    <circle id="Ellipse_923_copy_3" data-name="Ellipse 923 copy 3" class="cls-1" cx="22" cy="22" r="21"/>
    <path id="Shape_1732_copy" data-name="Shape 1732 copy" class="cls-2" d="M643.929,492.771c4.065,0,6.1,0,9.01,0,2.828,0,3.25,1.472,4.951,1.492a3.38,3.38,0,0,0,1.649-.439l-0.391-.406a0.741,0.741,0,0,1-.086.033c-0.117.044-.229,0.082-0.337,0.111-2.159.59-2.515-1.379-5.786-1.379-2.939,0-5.092,0-9.427,0a1.068,1.068,0,0,0,.417.59m2.657,3.327h6.223c0.651,0-.2-0.677-0.646-0.679H645.79a1.509,1.509,0,0,0,.8.679m18.923-6.6c-0.732.442-3.391,2.036-5.478,3.127l0.556,0.579c1.8-1.241,4.922-3.706,4.922-3.706m-4.428,5.966,0.84-.811,0.577,0.593c1.607-2.645,3.051-5.716,3.051-5.716s-1.851,1.873-4.014,4.049L644.3,510.765l13.529-15.042a0.169,0.169,0,0,0,.049-0.119,0.241,0.241,0,0,0-.2-0.217,0.159,0.159,0,0,0-.117.051L643.88,510.832V493.058a1.374,1.374,0,0,1-.363-0.639l-0.008-.009v19.139h18.735a5.312,5.312,0,0,1-.888-0.3H644.721l13.646-13.172a8.023,8.023,0,0,0-.391,3.434c0,1.335,0,4.519,0,5.64a3.526,3.526,0,0,0,.852,1.806v-5.9c0-.316.855-0.049,0.855,0.934v5.9a6.716,6.716,0,0,0,.856.675v-6.1c0-.319.852,0.051,0.852,0.66v5.9a3.2,3.2,0,0,0,.856.224c0-4.616,0-6.829,0-9.89,0-3.344-1.937-3.268-1.363-5.474a1.968,1.968,0,0,1,.2-0.421m-10.868-1.517h-5.557a1.612,1.612,0,0,0,.637.808h5.716c0.588,0-.092-0.8-0.8-0.808m-1.7,3.292h5.76c0.549,0-.09-0.445-0.527-0.447H647.8a1.3,1.3,0,0,0,.71.447" transform="translate(-632 -478)"/>
</svg>