<?xml version="1.0" encoding="utf-8"?>
<!-- Generator: Adobe Illustrator 21.1.0, SVG Export Plug-In . SVG Version: 6.00 Build 0)  -->
<svg version="1.1" id="Layer_1" xmlns="http://www.w3.org/2000/svg" xmlns:xlink="http://www.w3.org/1999/xlink" x="0px" y="0px"
	 viewBox="0 0 100 100" style="enable-background:new 0 0 100 100;" xml:space="preserve">
<style type="text/css">
	.st0{clip-path:url(#SVGID_2_);fill:url(#SVGID_3_);}
	.st1{fill:#223C72;}
	.st2{fill:#EFEBE7;}
	.st3{fill:#ED3726;}
	.st4{fill:#2F3E67;}
</style>
<g>
	<g>
		<defs>
			<path id="SVGID_1_" d="M50,0C27.5,0,7.1,15.2,1.5,38C-5.2,64.8,11.2,91.9,38,98.5c26.8,6.6,53.9-9.7,60.5-36.5
				C105.2,35.2,88.8,8.1,62,1.5C58,0.5,53.9,0,50,0C50,0,50,0,50,0"/>
		</defs>
		<clipPath id="SVGID_2_">
			<use xlink:href="#SVGID_1_"  style="overflow:visible;"/>
		</clipPath>
		
			<radialGradient id="SVGID_3_" cx="-1940.2578" cy="2037.6838" r="0.2532" gradientTransform="matrix(197.4678 0 0 -197.4678 383188.4375 402426.9375)" gradientUnits="userSpaceOnUse">
			<stop  offset="0" style="stop-color:#FFFFFF"/>
			<stop  offset="0.7809" style="stop-color:#FFFFFF"/>
			<stop  offset="0.8188" style="stop-color:#F9F8F8"/>
			<stop  offset="0.8756" style="stop-color:#E9E6E3"/>
			<stop  offset="0.9441" style="stop-color:#CFC8C2"/>
			<stop  offset="1" style="stop-color:#B5ABA1"/>
		</radialGradient>
		<rect x="-5.2" y="0" class="st0" width="110.3" height="105.2"/>
	</g>
	<g>
		<path class="st1" d="M1.5,38C8.1,11.2,35.2-5.2,62,1.5C88.8,8.1,105.2,35.2,98.5,62C91.9,88.8,64.8,105.2,38,98.5
			C11.2,91.9-5.2,64.8,1.5,38"/>
	</g>
	<g>
		<path class="st2" d="M85.5,14.8L65.4,28.2V2.4c-1.1-0.4-2.2-0.7-3.3-1c-9.4-2.3-18.9-1.8-27.5,1v25.7l-20-13.3
			C9.9,19.4,6.2,25,3.6,31.3l5.3,3.5H2.4c-0.3,1-0.6,2.1-0.9,3.2c-2.4,9.5-1.8,19,1.1,27.7h6.5l-5.2,3.5c2.5,6.1,6.3,11.7,11,16.4
			l19.7-13.1v25.1c1.1,0.4,2.3,0.7,3.5,1c9.4,2.3,18.8,1.8,27.4-0.9V72.4l19.8,13.2c4.6-4.6,8.4-10.1,11-16.3l-5.4-3.6h6.7
			c0.4-1.2,0.7-2.4,1.1-3.7c2.3-9.3,1.8-18.7-0.9-27.2h-6.7l5.4-3.6C93.8,25.1,90.1,19.5,85.5,14.8"/>
	</g>
	<g>
		<path class="st3" d="M26.8,34.8L8.3,22.5c-1.2,1.9-2.4,3.8-3.3,5.9l9.7,6.4H26.8z M91.7,22.4c-1.2-1.9-2.6-3.7-4.1-5.4L65.4,31.7
			v3.1H73L91.7,22.4z M8.4,77.7c1.3,1.9,2.6,3.7,4.1,5.4l22-14.6v-2.8h-8L8.4,77.7z M99.2,41.2H58.9V0.8c-6.1-1.1-12.2-1.1-18,0
			v40.4H0.8c-1.1,6.1-1,12.2,0.1,18h40.1v39.9c6.1,1.1,12.2,1.1,18,0v-40h40.2C100.3,53.1,100.3,47.1,99.2,41.2 M73.4,65.7
			l18.2,12.1c1.2-1.9,2.4-3.8,3.4-5.9l-9.4-6.2L73.4,65.7z"/>
	</g>
	<g>
		<path class="st4" d="M65.4,7.6L65.4,7.6v3.2c0.2-0.6,0.3-1.2,0.3-1.7C65.7,8.6,65.6,8.1,65.4,7.6"/>
	</g>
</g>
</svg>
