<svg xmlns="http://www.w3.org/2000/svg" width="33.25" height="20" viewBox="0 0 33.25 20">
  <metadata><?xpacket begin="﻿" id="W5M0MpCehiHzreSzNTczkc9d"?>
<x:xmpmeta xmlns:x="adobe:ns:meta/" x:xmptk="Adobe XMP Core 5.6-c138 79.159824, 2016/09/14-01:09:01        ">
   <rdf:RDF xmlns:rdf="http://www.w3.org/1999/02/22-rdf-syntax-ns#">
      <rdf:Description rdf:about=""/>
   </rdf:RDF>
</x:xmpmeta>
                                                                                                    
                                                                                                    
                                                                                                    
                                                                                                    
                                                                                                    
                                                                                                    
                                                                                                    
                                                                                                    
                                                                                                    
                                                                                                    
                                                                                                    
                                                                                                    
                                                                                                    
                                                                                                    
                                                                                                    
                                                                                                    
                                                                                                    
                                                                                                    
                                                                                                    
                                                                                                    
                           
<?xpacket end="w"?></metadata>
<defs>
    <style>
      .cls-1 {
        fill: #676767;
        fill-rule: evenodd;
      }
    </style>
  </defs>
  <path id="prenotazione" class="cls-1" d="M117.647,492H88.366a2.06,2.06,0,0,1-2-2.123V474.1a2.051,2.051,0,0,1,1.97-2.1h29.294a2.059,2.059,0,0,1,2,2.123V489.9a2.049,2.049,0,0,1-1.971,2.1h-0.012Zm-0.038-18.667H88.366a0.717,0.717,0,0,0-.665.744V489.9a0.727,0.727,0,0,0,.69.767H117.62a0.723,0.723,0,0,0,.68-0.745V474.1A0.728,0.728,0,0,0,117.609,473.333Zm-13.944,5.334A0.666,0.666,0,0,1,103,478v-2.667a0.665,0.665,0,1,1,1.33,0V478A0.666,0.666,0,0,1,103.665,478.667Zm0,5.333a0.666,0.666,0,0,1-.665-0.667v-2.666a0.665,0.665,0,1,1,1.33,0v2.666A0.665,0.665,0,0,1,103.665,484Zm9.313-4.667h-5.322a0.667,0.667,0,0,1,0-1.333h5.322A0.667,0.667,0,0,1,112.978,479.333Zm0,6.667h-5.322a0.667,0.667,0,0,1,0-1.333h5.322A0.667,0.667,0,0,1,112.978,486Zm1.33-3.333h-6.652a0.667,0.667,0,0,1,0-1.334h6.652A0.667,0.667,0,0,1,114.308,482.667Zm-10.643,6.666a0.666,0.666,0,0,1-.665-0.666V486a0.665,0.665,0,1,1,1.33,0v2.667A0.665,0.665,0,0,1,103.665,489.333Z" transform="translate(-86.375 -472)"/>
</svg>
