<?xml version="1.0" encoding="utf-8"?>
<!-- Generator: Adobe Illustrator 16.0.0, SVG Export Plug-In . SVG Version: 6.00 Build 0)  -->
<!DOCTYPE svg PUBLIC "-//W3C//DTD SVG 1.1//EN" "http://www.w3.org/Graphics/SVG/1.1/DTD/svg11.dtd">
<svg version="1.1" id="Layer_1" xmlns="http://www.w3.org/2000/svg" xmlns:xlink="http://www.w3.org/1999/xlink" x="0px" y="0px"
	 width="16px" height="9px" viewBox="0 0 16 9" enable-background="new 0 0 16 9" xml:space="preserve">
<metadata><?xpacket begin="﻿" id="W5M0MpCehiHzreSzNTczkc9d"?>
<x:xmpmeta xmlns:x="adobe:ns:meta/" x:xmptk="Adobe XMP Core 5.3-c011 66.145661, 2012/02/06-14:56:27        ">
   <rdf:RDF xmlns:rdf="http://www.w3.org/1999/02/22-rdf-syntax-ns#">
      <rdf:Description rdf:about=""
            xmlns:xmp="http://ns.adobe.com/xap/1.0/"
            xmlns:xmpGImg="http://ns.adobe.com/xap/1.0/g/img/">
         <xmp:CreatorTool>Adobe Illustrator CS6 (Windows)</xmp:CreatorTool>
         <xmp:CreateDate>2017-12-20T11:33:55+01:00</xmp:CreateDate>
         <xmp:Thumbnails>
            <rdf:Alt>
               <rdf:li rdf:parseType="Resource">
                  <xmpGImg:width>256</xmpGImg:width>
                  <xmpGImg:height>144</xmpGImg:height>
                  <xmpGImg:format>JPEG</xmpGImg:format>
                  <xmpGImg:image>/9j/4AAQSkZJRgABAgEASABIAAD/7QAsUGhvdG9zaG9wIDMuMAA4QklNA+0AAAAAABAASAAAAAEA&#xA;AQBIAAAAAQAB/+4ADkFkb2JlAGTAAAAAAf/bAIQABgQEBAUEBgUFBgkGBQYJCwgGBggLDAoKCwoK&#xA;DBAMDAwMDAwQDA4PEA8ODBMTFBQTExwbGxscHx8fHx8fHx8fHwEHBwcNDA0YEBAYGhURFRofHx8f&#xA;Hx8fHx8fHx8fHx8fHx8fHx8fHx8fHx8fHx8fHx8fHx8fHx8fHx8fHx8fHx8f/8AAEQgAkAEAAwER&#xA;AAIRAQMRAf/EAaIAAAAHAQEBAQEAAAAAAAAAAAQFAwIGAQAHCAkKCwEAAgIDAQEBAQEAAAAAAAAA&#xA;AQACAwQFBgcICQoLEAACAQMDAgQCBgcDBAIGAnMBAgMRBAAFIRIxQVEGE2EicYEUMpGhBxWxQiPB&#xA;UtHhMxZi8CRygvElQzRTkqKyY3PCNUQnk6OzNhdUZHTD0uIIJoMJChgZhJRFRqS0VtNVKBry4/PE&#xA;1OT0ZXWFlaW1xdXl9WZ2hpamtsbW5vY3R1dnd4eXp7fH1+f3OEhYaHiImKi4yNjo+Ck5SVlpeYmZ&#xA;qbnJ2en5KjpKWmp6ipqqusra6voRAAICAQIDBQUEBQYECAMDbQEAAhEDBCESMUEFURNhIgZxgZEy&#xA;obHwFMHR4SNCFVJicvEzJDRDghaSUyWiY7LCB3PSNeJEgxdUkwgJChgZJjZFGidkdFU38qOzwygp&#xA;0+PzhJSktMTU5PRldYWVpbXF1eX1RlZmdoaWprbG1ub2R1dnd4eXp7fH1+f3OEhYaHiImKi4yNjo&#xA;+DlJWWl5iZmpucnZ6fkqOkpaanqKmqq6ytrq+v/aAAwDAQACEQMRAD8A9U4q7FXYq7FXYq7FXYq7&#xA;FXYq7FXYq7FXYq7FXnn5sfm3YeSrL6racLrzDcLW3tW3SJT/ALtmoQafyr1b5b4CXE1WqGMUPqfL&#xA;vmDzX5j8w3TXOs6hNeSE1CyMfTX2SMURB/qjIulnllM2TbvL/mvzH5euludG1CazkBqVjY+m3s8Z&#xA;qjj/AFhisMsoGwafUX5T/m3YedbL6rd8LXzDbrW4tV2SVR/u2GpJp/MvVflvkgXdaXVDIKP1PQ8L&#xA;luxV2KuxV2KuxV2KuxV2KuxV2KuxV2KuxV2KuxV2KuxV2KuxV2KuxV2KuxV2KuxV2KvO/wA2vzas&#xA;fJdibS0KXPmG5SttbHdYlO3rTU7fyr+18sBLiarVDGKH1PlHUtSvtTvp7+/ne5vLlzJPPIaszHIu&#xA;ilIk2eaGxQ7FUTpupX2mX0F/YTvbXls4kgnjNGVhimMiDY5vq78pfzasfOliLS7KW3mG2StzbDZZ&#xA;VG3rQ17fzL+z8skC73S6oZBR+p6Jhct2KuxV2KuxV2KuxV2KuxV2KuxV2KuxV2KuxV2KuxV2KuxV&#xA;2KuxV2KuxV2KuxV53+bX5tWPkuxNpaFLnzDcpW2tjusSnb1pqdv5V/a+WAlxNVqhjFD6nyjqWpX2&#xA;p309/fzvc3ly5knnkNWZjkXRSkSbPNDYodirsVdiqJ03Ur7TL6C/sJ3try2cSQTxmjKwxTGRBsc3&#xA;1d+Uv5tWPnSxFpdlLbzDbJW5thssqjb1oa9v5l/Z+WSBd7pdUMgo/U9EwuW7FXYq7FXYq7FXYq7F&#xA;XYq7FXYq7FXYq7FXYq7FXYq7FXYq7FXYq7FXYq87/Nr82rHyXYm0tClz5huUrbWx3WJTt601O38q&#xA;/tfLAS4mq1Qxih9T5R1LUr7U76e/v53uby5cyTzyGrMxyLopSJNnmhsUOxV2KuxV2KuxVE6bqV9p&#xA;l9Bf2E7215bOJIJ4zRlYYpjIg2Ob6u/KX82rHzpYi0uylt5htkrc2w2WVRt60Ne38y/s/LJAu90u&#xA;qGQUfqeiYXLdirsVdirsVdirsVdirsVdirsVdirsVdirsVdirsVdirsVdirsVed/m1+bVj5LsTaW&#xA;hS58w3KVtrY7rEp29aanb+Vf2vlgJcTVaoYxQ+p8o6lqV9qd9Pf3873N5cuZJ55DVmY5F0UpEmzz&#xA;Q2KHYq7FU98meTNa83a1HpWlR1Y/FcXDV9OGOu8kh8PAdSdhi24cMskqDvOfkzWvKOtSaVqsdGHx&#xA;W9wtfTmjrtJGfDxHUHY4rmwyxyopFi1OxV2KonTdSvtMvoL+wne2vLZxJBPGaMrDFMZEGxzfV35S&#xA;/m1Y+dLEWl2UtvMNslbm2GyyqNvWhr2/mX9n5ZIF3ul1QyCj9T0TC5bsVdirsVdirsVdirsVdirs&#xA;VdirsVdirsVdirsVdirsVdirzv8ANr82rHyXYm0tClz5huUrbWx3WJTt601O38q/tfLAS4mq1Qxi&#xA;h9T5R1LUr7U76e/v53uby5cyTzyGrMxyLopSJNnmhsUOxV2Kp75M8ma15u1qPStKjqx+K4uGr6cM&#xA;dd5JD4eA6k7DFtw4ZZJUH175H8j6L5O0VNM0xKsaNd3bAepPJT7Te38q9AMmA7/DhjjjQd548j6L&#xA;5x0V9M1NKMKtaXagepBJT7S+38y9CMSFzYY5I0XyF5z8ma15R1qTStVjow+K3uFr6c0ddpIz4eI6&#xA;g7HIOgzYZY5UUixanYq7FUTpupX2mX0F/YTvbXls4kgnjNGVhimMiDY5vq78pfzasfOliLS7KW3m&#xA;G2StzbDZZVG3rQ17fzL+z8skC73S6oZBR+p6Jhct2KuxV2KuxV2KuxV2KuxV2KuxV2KuxV2KuxV2&#xA;KuxV53+bX5tWPkuxNpaFLnzDcpW2tjusSnb1pqdv5V/a+WAlxNVqhjFD6nyjqWpX2p309/fzvc3l&#xA;y5knnkNWZjkXRSkSbPNDYodirsVZD5H8j615x1pNM0xKKKNd3bA+nBHX7b+/8q9ScQG3DhlklQfX&#xA;nkvyToflDR003SouPQ3NywHqzyAfbkb9Q6Dtk3f4cMcYoJ9i2uxVj3njyPovnHRX0zU0owq1pdqB&#xA;6kElPtL7fzL0IxIas2GOSNF8jeePI+teTtafTNTSqmrWl2oPpzx1+2nv/MvUHIEOgzYZY5UWPYtT&#xA;sVdiqJ03Ur7TL6C/sJ3try2cSQTxmjKwxTGRBsc31d+Uv5tWPnSxFpdlLbzDbJW5thssqjb1oa9v&#xA;5l/Z+WSBd7pdUMgo/U9EwuW7FXYq7FXYq7FXYq7FXYq7FXYq7FXYq7FXYq85/Nj83tO8m2jWFkVu&#xA;vMcyVht+qQBukk1PvVep+W+AlxNVqhjFD6nynqWpX2p309/fzvc3ly5knnkNWZjkXRSkSbPNDYod&#xA;irsVZD5H8j615x1pNM0xKKKNd3bA+nBHX7b+/wDKvUnEBtw4ZZJUH175M8maL5R0WPStKjoo+K4u&#xA;Gp6k0lN5JD4+A6AbDJu/w4Y440E9xbXYq7FXYqkXnPyZovm7RZNK1WOqn4re4WnqQyU2kjPj4joR&#xA;scWrNhjkjRfIXnjyPrXk7Wn0zU0qpq1pdqD6c8dftp7/AMy9QcgQ6DNhljlRY9i1OxV2KonTdSvt&#xA;MvoL+wne2vLZxJBPGaMrDFMZEGxzfVv5Tfm5p3nKyWyvWS18xQL+/tq0WYKN5Ya9f8peq/LJAu90&#xA;uqGQUfqei4XLdirsVdirsVdirsVdirsVdirsVdirsVebfm9+b1n5Os207TmS48x3CVjjNGW3VhtL&#xA;KPH+Ve/U7dQS4eq1Qxih9T5Uvr68v7ya9vZnuLu4cyTTSEszMxqSSci6OUiTZUMUOxV2Ksh8j+R9&#xA;a8460mmaYlFFGu7tgfTgjr9t/f8AlXqTiA24cMskqD698meTNF8o6LHpWlR0UfFcXDU9SaSm8kh8&#xA;fAdANhk3f4cMccaCe4trsVdirsVdirsVSLzn5M0XzdosmlarHVT8VvcLT1IZKbSRnx8R0I2OLVmw&#xA;xyRovkLzx5H1rydrT6ZqaVU1a0u1B9OeOv209/5l6g5Ah0GbDLHKix7FqdirsVV7G+vLC8hvbKZ7&#xA;e7t3EkM0ZKsrKaggjFMZEGw+q/yh/N6z842a6dqLJb+Y7dKyRiircKo3liHj/MvbqNukgXeaXVDI&#xA;KP1PScLmOxV2KuxV2KuxV2KuxV2KuxV2KvNvze/N6z8nWbadpzJceY7hKxxmjLbqw2llHj/Kvfqd&#xA;uoJcPVaoYxQ+p8qX19eX95Ne3sz3F3cOZJppCWZmY1JJORdHKRJsqGKHYq7FWQ+R/I+tecdaTTNM&#xA;SiijXd2wPpwR1+2/v/KvUnEBtw4ZZJUH175M8maL5R0WPStKjoo+K4uGp6k0lN5JD4+A6AbDJu/w&#xA;4Y440E9xbXYq7FXYq7FXYq7FXYqkXnPyZovm7RZNK1WOqn4re4WnqQyU2kjPj4joRscWrNhjkjRf&#xA;IXnjyPrXk7Wn0zU0qpq1pdqD6c8dftp7/wAy9QcgQ6DNhljlRY9i1OxV2Kq9jfXlheQ3tlM9vd27&#xA;iSGaMlWVlNQQRimMiDYfVf5Q/m9Z+cbNdO1Fkt/MdulZIxRVuFUbyxDx/mXt1G3SQLvNLqhkFH6n&#xA;pOFzHYq7FXYq7FXYq7FXYq7FXm35vfm9Z+TrNtO05kuPMdwlY4zRlt1YbSyjx/lXv1O3UEuHqtUM&#xA;YofU+VL6+vL+8mvb2Z7i7uHMk00hLMzMakknIujlIk2VDFDsVdirIfI/kfWvOOtJpmmJRRRru7YH&#xA;04I6/bf3/lXqTiA24cMskqD698meTNF8o6LHpWlR0UfFcXDU9SaSm8kh8fAdANhk3f4cMccaCe4t&#xA;rsVdirsVdirsVdirsVdirsVSLzn5M0XzdosmlarHVT8VvcLT1IZKbSRnx8R0I2OLVmwxyRovkLzx&#xA;5H1rydrT6ZqaVU1a0u1B9OeOv209/wCZeoOQIdBmwyxyosexanYq7FVexvrywvIb2yme3u7dxJDN&#xA;GSrKymoIIxTGRBsPqv8AKH83rPzjZrp2oslv5jt0rJGKKtwqjeWIeP8AMvbqNukgXeaXVDIKP1PS&#xA;cLmOxV2KuxV2KuxV2KvNvze/N6z8nWbadpzJceY7hKxxmjLbqw2llHj/ACr36nbqCXD1WqGMUPqf&#xA;Kl9fXl/eTXt7M9xd3DmSaaQlmZmNSSTkXRykSbKhih2KuxVkPkfyPrXnHWk0zTEooo13dsD6cEdf&#xA;tv7/AMq9ScQG3DhlklQfXvkzyZovlHRY9K0qOij4ri4anqTSU3kkPj4DoBsMm7/DhjjjQT3Ftdir&#xA;sVdirsVdirsVdirsVdirsVdiqRec/Jmi+btFk0rVY6qfit7haepDJTaSM+PiOhGxxas2GOSNF8he&#xA;ePI+teTtafTNTSqmrWl2oPpzx1+2nv8AzL1ByBDoM2GWOVFj2LU7FXYqr2N9eWF5De2Uz293buJI&#xA;ZoyVZWU1BBGKYyINh9V/lD+b1n5xs107UWS38x26VkjFFW4VRvLEPH+Ze3UbdJAu80uqGQUfqek4&#xA;XMdirsVdirsVebfm9+b1n5Os207TmS48x3CVjjNGW3VhtLKPH+Ve/U7dQS4eq1Qxih9T5Uvr68v7&#xA;ya9vZnuLu4cyTTSEszMxqSSci6OUiTZUMUOxV2Ksh8j+R9a8460mmaYlFFGu7tgfTgjr9t/f+Vep&#xA;OIDbhwyySoPr3yZ5M0XyjoselaVHRR8VxcNT1JpKbySHx8B0A2GTd/hwxxxoJ7i2uxV2KuxV2Kux&#xA;V2KuxV2KuxV2KuxV2KuxVIvOfkzRfN2iyaVqsdVPxW9wtPUhkptJGfHxHQjY4tWbDHJGi+QvPHkf&#xA;WvJ2tPpmppVTVrS7UH0546/bT3/mXqDkCHQZsMscqLHsWp2KuxVXsb68sLyG9spnt7u3cSQzRkqy&#xA;spqCCMUxkQbD6r/KH83rPzjZrp2oslv5jt0rJGKKtwqjeWIeP8y9uo26SBd5pdUMgo/U9JwuY7FX&#xA;Yq82/N783rPydZtp2nMlx5juErHGaMturDaWUeP8q9+p26glw9VqhjFD6nypfX15f3k17ezPcXdw&#xA;5kmmkJZmZjUkk5F0cpEmyoYodirsVZD5H8j615x1pNM0xKKKNd3bA+nBHX7b+/8AKvUnEBtw4ZZJ&#xA;UH175M8maL5R0WPStKjoo+K4uGp6k0lN5JD4+A6AbDJu/wAOGOONBPcW12KuxV2KuxV2KuxV2Kux&#xA;V2KuxV2KuxV2KuxV2KpF5z8maL5u0WTStVjqp+K3uFp6kMlNpIz4+I6EbHFqzYY5I0XyF548j615&#xA;O1p9M1NKqataXag+nPHX7ae/8y9QcgQ6DNhljlRY9i1OxV2Kq9jfXlheQ3tlM9vd27iSGaMlWVlN&#xA;QQRimMiDYfVf5Q/m9Z+cbNdO1Fkt/MdulZIxRVuFUbyxDx/mXt1G3SQLvNLqhkFH6npOFzHm/wCb&#xA;/wCbdt5MsvqFhxn8xXScoIzukCHb1pB3/wAle/fbqCXD1WqGMUPqfKd9fXl/eTXt7M9xd3DmSaaQ&#xA;lmZmNSSTkXRykSbKhih2KuxVkPkfyPrXnHWk0zTEooo13dsD6cEdftv7/wAq9ScQG3DhlklQfXvk&#xA;zyZovlHRY9K0qOij4ri4anqTSU3kkPj4DoBsMm7/AA4Y440E9xbXYq7FXYq7FXYq7FXYq7FXYq7F&#xA;XYq7FXYq7FXYq7FXYqkXnPyZovm7RZNK1WOqn4re4WnqQyU2kjPj4joRscWrNhjkjRfIXnjyPrXk&#xA;7Wn0zU0qpq1pdqD6c8dftp7/AMy9QcgQ6DNhljlRY9i1OxV2Kq9jfXlheQ3tlM9vd27iSGaMlWVl&#xA;NQQRimMiDYfVn5Qfm3bec7L6hf8AGDzFapynjGyToNvWjHb/ACl7dtukgXeaXVDIKP1PmPzd5guf&#xA;MPmXUdZuGLNeTu6A/sx1pGgr2VAFGRdNlnxyJSjFrdirsVZD5H8j615x1pNM0xKKKNd3bA+nBHX7&#xA;b+/8q9ScQG3DhlklQfXvkzyZovlHRY9K0qOij4ri4anqTSU3kkPj4DoBsMm7/DhjjjQT3FtdirsV&#xA;dirsVdirsVdirsVdirsVdirsVdirsVdirsVdirsVdiqRec/Jmi+btFk0rVY6qfit7haepDJTaSM+&#xA;PiOhGxxas2GOSNF8heePI+teTtafTNTSqmrWl2oPpzx1+2nv/MvUHIEOgzYZY5UWPYtTsVdiqb+U&#xA;PMFx5e8zabrMDFWs50eQCvxR1pIhp2ZCRi2Yp8EgUJrWl3Ok6ve6ZcqVnsppIJARTeNitfppXFjO&#xA;JiSD0QeLF2Ksh8j+R9a8460mmaYlFFGu7tgfTgjr9t/f+VepOIDbhwyySoPr3yZ5M0XyjoselaVH&#xA;RR8VxcNT1JpKbySHx8B0A2GTd/hwxxxoJ7i2uxV2KuxV2KuxV2KuxV2KuxV2KuxV2KuxV2KuxV2K&#xA;uxV2KuxV2KuxVIvOfkzRfN2iyaVqsdVPxW9wtPUhkptJGfHxHQjY4tWbDHJGi+QvPHkfWvJ2tPpm&#xA;ppVTVrS7UH0546/bT3/mXqDkCHQZsMscqLHsWp2Ko3RNKuNX1iy0u2Bae9njgjp4yMFr8hWpxZQj&#xA;xEAdX0V+df5M3PmO4PmLy8inVwgW9syQv1gIAEdGNAJFXY1O4p3G8iHb6zSGfqjzfOupaJrGl3Bt&#xA;9SsZ7OcHj6c8bxtX2DAVyLqJQMeYZP5K/KXzj5qu4lhspLLTmIM2pXKMkSp3KBuJlPsv006403Yd&#xA;LOZ5UO99VeTPJmi+UdFj0rSo6KPiuLhqepNJTeSQ+PgOgGwybvMOGOONBPcW12KuxV2KuxV2KuxV&#xA;2KuxV2KuxV2KuxV2KuxV2KuxV2KuxV2KuxV2KuxV2KpF5z8maL5u0WTStVjqp+K3uFp6kMlNpIz4&#xA;+I6EbHFqzYY5I0Xyp50/KXzl5Vu5VnspL3TlJMWpWyM8TJ2L8eRjPs30V65CnR5tLOB5WGM6boms&#xA;apcC302xnvJyePpwRvI1fcKDTFpjAy5B9F/kp+TNx5cnHmLzCijWCpWyswQ31dXFGdyKj1Cu2x2B&#xA;PfpIB2+j0nB6pc3/2Q==</xmpGImg:image>
               </rdf:li>
            </rdf:Alt>
         </xmp:Thumbnails>
         <xmp:MetadataDate>2017-12-20T11:33:55+01:00</xmp:MetadataDate>
         <xmp:ModifyDate>2017-12-20T11:33:55+01:00</xmp:ModifyDate>
      </rdf:Description>
      <rdf:Description rdf:about=""
            xmlns:xmpTPg="http://ns.adobe.com/xap/1.0/t/pg/"
            xmlns:stDim="http://ns.adobe.com/xap/1.0/sType/Dimensions#"
            xmlns:xmpG="http://ns.adobe.com/xap/1.0/g/">
         <xmpTPg:MaxPageSize rdf:parseType="Resource">
            <stDim:w>16.000000</stDim:w>
            <stDim:h>9.000000</stDim:h>
            <stDim:unit>Pixels</stDim:unit>
         </xmpTPg:MaxPageSize>
         <xmpTPg:NPages>1</xmpTPg:NPages>
         <xmpTPg:HasVisibleTransparency>False</xmpTPg:HasVisibleTransparency>
         <xmpTPg:HasVisibleOverprint>False</xmpTPg:HasVisibleOverprint>
         <xmpTPg:PlateNames>
            <rdf:Seq>
               <rdf:li>Cyan</rdf:li>
               <rdf:li>Magenta</rdf:li>
               <rdf:li>Yellow</rdf:li>
               <rdf:li>Black</rdf:li>
            </rdf:Seq>
         </xmpTPg:PlateNames>
         <xmpTPg:SwatchGroups>
            <rdf:Seq>
               <rdf:li rdf:parseType="Resource">
                  <xmpG:groupName>Default Swatch Group</xmpG:groupName>
                  <xmpG:groupType>0</xmpG:groupType>
               </rdf:li>
            </rdf:Seq>
         </xmpTPg:SwatchGroups>
      </rdf:Description>
      <rdf:Description rdf:about=""
            xmlns:dc="http://purl.org/dc/elements/1.1/">
         <dc:format>image/svg+xml</dc:format>
      </rdf:Description>
      <rdf:Description rdf:about=""
            xmlns:xmpMM="http://ns.adobe.com/xap/1.0/mm/"
            xmlns:stEvt="http://ns.adobe.com/xap/1.0/sType/ResourceEvent#">
         <xmpMM:DerivedFrom rdf:parseType="Resource"/>
         <xmpMM:DocumentID>xmp.did:F43FF74771E5E711911FBE251AC93BCC</xmpMM:DocumentID>
         <xmpMM:InstanceID>xmp.iid:F43FF74771E5E711911FBE251AC93BCC</xmpMM:InstanceID>
         <xmpMM:OriginalDocumentID>xmp.did:F43FF74771E5E711911FBE251AC93BCC</xmpMM:OriginalDocumentID>
         <xmpMM:History>
            <rdf:Seq>
               <rdf:li rdf:parseType="Resource">
                  <stEvt:action>saved</stEvt:action>
                  <stEvt:instanceID>xmp.iid:F43FF74771E5E711911FBE251AC93BCC</stEvt:instanceID>
                  <stEvt:when>2017-12-20T11:33:55+01:00</stEvt:when>
                  <stEvt:softwareAgent>Adobe Illustrator CS6 (Windows)</stEvt:softwareAgent>
                  <stEvt:changed>/</stEvt:changed>
               </rdf:li>
            </rdf:Seq>
         </xmpMM:History>
      </rdf:Description>
   </rdf:RDF>
</x:xmpmeta>
                                                                                                    
                                                                                                    
                                                                                                    
                                                                                                    
                                                                                                    
                                                                                                    
                                                                                                    
                                                                                                    
                                                                                                    
                                                                                                    
                                                                                                    
                                                                                                    
                                                                                                    
                                                                                                    
                                                                                                    
                                                                                                    
                                                                                                    
                                                                                                    
                                                                                                    
                                                                                                    
                           
<?xpacket end="w"?>
	</metadata>
<path id="Istogramma_Close" fill="#006643" d="M8.604,0.248l7.119,7.1c0.356,0.367,0.376,0.946,0.043,1.337
	c-0.018,0.021-0.036,0.042-0.056,0.062c-0.332,0.324-0.865,0.319-1.19-0.013l-6.518-6.5l-6.517,6.5
	c-0.019,0.02-0.039,0.038-0.06,0.056C1.068,9.088,0.536,9.041,0.237,8.685c-0.332-0.391-0.313-0.97,0.045-1.337l7.118-7.1
	C7.559,0.088,7.774-0.004,8-0.004C8.227-0.005,8.444,0.086,8.604,0.248z"/>
</svg>
