<svg xmlns="http://www.w3.org/2000/svg" width="16" height="9" viewBox="0 0 16 9">
  <metadata><?xpacket begin="﻿" id="W5M0MpCehiHzreSzNTczkc9d"?>
<x:xmpmeta xmlns:x="adobe:ns:meta/" x:xmptk="Adobe XMP Core 5.6-c138 79.159824, 2016/09/14-01:09:01        ">
   <rdf:RDF xmlns:rdf="http://www.w3.org/1999/02/22-rdf-syntax-ns#">
      <rdf:Description rdf:about=""/>
   </rdf:RDF>
</x:xmpmeta>





















<?xpacket end="w"?></metadata>
<defs>
    <style>
      .cls-1 {
        fill: #676767;
        fill-rule: evenodd;
      }
    </style>
  </defs>
  <path id="Istogramma_Close" class="cls-1" d="M642,290.987a0.85,0.85,0,0,1-.6-0.252l-7.118-7.1a0.994,0.994,0,0,1-.045-1.337,0.843,0.843,0,0,1,1.248-.049l6.517,6.5,6.517-6.5a0.842,0.842,0,0,1,1.247.049,0.994,0.994,0,0,1-.044,1.337l-7.119,7.1A0.846,0.846,0,0,1,642,290.987Z" transform="translate(-634 -282)"/>
</svg>
