<svg xmlns="http://www.w3.org/2000/svg" width="24.938" height="25.031" viewBox="0 0 24.938 25.031">
  <metadata><?xpacket begin="﻿" id="W5M0MpCehiHzreSzNTczkc9d"?>
<x:xmpmeta xmlns:x="adobe:ns:meta/" x:xmptk="Adobe XMP Core 5.6-c138 79.159824, 2016/09/14-01:09:01        ">
   <rdf:RDF xmlns:rdf="http://www.w3.org/1999/02/22-rdf-syntax-ns#">
      <rdf:Description rdf:about=""/>
   </rdf:RDF>
</x:xmpmeta>





















<?xpacket end="w"?></metadata>
<defs>
    <style>
      .cls-1 {
        fill: #ffffff;
        fill-rule: evenodd;
      }
    </style>
  </defs>
  <path id="Custom_care" data-name="Custom care" class="cls-1" d="M109.754,281.588a2.34,2.34,0,0,0-3.543,0l-1.691,1.7c-0.161-.081-0.242-0.162-0.4-0.243a2.69,2.69,0,0,1-.483-0.243,17.939,17.939,0,0,1-4.349-3.97,10.577,10.577,0,0,1-1.45-2.269l1.208-1.215a2.146,2.146,0,0,0,.4-0.486,2.387,2.387,0,0,0,0-3.646l-1.369-1.458-0.483-.486-0.966-.972a2.58,2.58,0,0,0-1.772-.81,2.278,2.278,0,0,0-1.772.81h0l-1.852,1.782a4.014,4.014,0,0,0-1.127,2.431,9.523,9.523,0,0,0,.644,3.969,21.924,21.924,0,0,0,4.026,6.725,24.859,24.859,0,0,0,8.294,6.481,12.267,12.267,0,0,0,4.671,1.378h0.322a3.949,3.949,0,0,0,3.06-1.3h0a9.754,9.754,0,0,1,.886-0.972c0.242-.243.483-0.405,0.725-0.648a2.971,2.971,0,0,0,.805-1.863,2.306,2.306,0,0,0-.805-1.783Zm1.933,5.59h0l-0.644.648A12.87,12.87,0,0,0,110,288.879a2.549,2.549,0,0,1-2.013.81h-0.242a12.231,12.231,0,0,1-4.107-1.215A23.942,23.942,0,0,1,92.038,276a7.573,7.573,0,0,1-.564-3.321,2.516,2.516,0,0,1,.725-1.54l1.852-1.863a1.279,1.279,0,0,1,.805-0.405,1.116,1.116,0,0,1,.805.405h0l0.966,0.972,0.483,0.486,1.45,1.459a0.987,0.987,0,0,1,0,1.62l-0.483.486c-0.4.486-.886,0.891-1.288,1.3h0a0.947,0.947,0,0,0-.242,1.216v0.081a11.586,11.586,0,0,0,1.691,2.754h0a19.271,19.271,0,0,0,4.671,4.294,2.419,2.419,0,0,0,.644.324,2.67,2.67,0,0,1,.484.243h0.08a1.139,1.139,0,0,0,.483.162,0.965,0.965,0,0,0,.806-0.4l1.771-1.782a1.284,1.284,0,0,1,.806-0.4,1.081,1.081,0,0,1,.724.4l2.9,2.916a1.212,1.212,0,0,1,.081,1.783h0Zm-8.134-15.15a6.629,6.629,0,0,1,5.476,5.509,0.707,0.707,0,0,0,.725.567h0.161a0.667,0.667,0,0,0,.564-0.81,8.417,8.417,0,0,0-2.255-4.456,9.286,9.286,0,0,0-4.429-2.269,0.663,0.663,0,0,0-.805.567,0.747,0.747,0,0,0,.563.892h0Zm11.436,5.1a13.608,13.608,0,0,0-3.785-7.292,13.469,13.469,0,0,0-7.248-3.808,0.7,0.7,0,0,0-.241,1.378,11.939,11.939,0,0,1,6.442,3.4,12.063,12.063,0,0,1,3.382,6.482,0.707,0.707,0,0,0,.725.567h0.161a0.605,0.605,0,0,0,.564-0.729h0Z" transform="translate(-90.063 -266.031)"/>
</svg>
