<?xml version="1.0" encoding="utf-8"?>
<!-- Generator: Adobe Illustrator 22.1.0, SVG Export Plug-In . SVG Version: 6.00 Build 0)  -->
<svg version="1.1" id="Livello_1" xmlns="http://www.w3.org/2000/svg" xmlns:xlink="http://www.w3.org/1999/xlink" x="0px" y="0px"
	 viewBox="0 0 576 512" style="enable-background:new 0 0 576 512;" xml:space="preserve">
<style type="text/css">
	.st0{fill:#575757;}
</style>
<path class="st0" d="M569.4,231.6C513,135.9,407.8,72,288,72C168.1,72,63,136,6.6,231.6c-8.9,15-8.9,33.7,0,48.7
	C63,376.1,168.2,440,288,440c119.9,0,225-64,281.4-159.6C578.2,265.3,578.2,246.7,569.4,231.6L569.4,231.6z M288,392
	c-75.2,0-136-60.8-136-136c0-75.2,60.8-136,136-136c75.2,0,136,60.8,136,136C424,331.2,363.2,392,288,392z M385.5,218.6
	c30.1,85.9-49,165-134.9,134.9c-27.1-9.5-48.9-30.5-59.1-57.3c-12.2-32.3-8.8-63.8,4.7-89.1l0,0c0,24.2,20.1,43.7,44.5,42.8
	c22.2-0.8,39.3-13.9,41.1-41.1c1.7-24.4-18.6-44.5-42.8-44.5l0,0c25.3-13.5,56.8-16.9,89.1-4.7C355,169.7,376,191.5,385.5,218.6z"/>
</svg>
