<svg xmlns="http://www.w3.org/2000/svg" width="22" height="22" viewBox="0 0 22 22">
  <metadata><?xpacket begin="﻿" id="W5M0MpCehiHzreSzNTczkc9d"?>
<x:xmpmeta xmlns:x="adobe:ns:meta/" x:xmptk="Adobe XMP Core 5.6-c138 79.159824, 2016/09/14-01:09:01        ">
   <rdf:RDF xmlns:rdf="http://www.w3.org/1999/02/22-rdf-syntax-ns#">
      <rdf:Description rdf:about=""/>
   </rdf:RDF>
</x:xmpmeta>
                                                                                                    
                                                                                                    
                                                                                                    
                                                                                                    
                                                                                                    
                                                                                                    
                                                                                                    
                                                                                                    
                                                                                                    
                                                                                                    
                                                                                                    
                                                                                                    
                                                                                                    
                                                                                                    
                                                                                                    
                                                                                                    
                                                                                                    
                                                                                                    
                                                                                                    
                                                                                                    
                           
<?xpacket end="w"?></metadata>
<defs>
    <style>
      .cls-1 {
        fill: #006643;
        fill-rule: evenodd;
      }
    </style>
  </defs>
  <path id="Cogwheel" class="cls-1" d="M103,410.117A3.883,3.883,0,1,0,106.883,414,3.887,3.887,0,0,0,103,410.117Zm0,6.471A2.588,2.588,0,1,1,105.588,414,2.59,2.59,0,0,1,103,416.588Zm10.354-5.824H111.2l-0.124-.3,1.506-1.507a0.646,0.646,0,0,0,0-.915l-3.623-3.624a0.667,0.667,0,0,0-.915,0l-1.507,1.507-0.3-.123v-2.156a0.647,0.647,0,0,0-.647-0.647h-5.176a0.647,0.647,0,0,0-.648.647V405.8l-0.3.124-1.507-1.507a0.648,0.648,0,0,0-.915,0l-3.624,3.624a0.647,0.647,0,0,0,0,.915l1.507,1.507-0.124.3H92.646a0.647,0.647,0,0,0-.647.648v5.176a0.647,0.647,0,0,0,.647.647H94.8l0.124,0.3-1.507,1.507a0.647,0.647,0,0,0,0,.915l3.624,3.623a0.646,0.646,0,0,0,.915,0l1.507-1.506,0.3,0.124v2.155a0.647,0.647,0,0,0,.648.647h5.176a0.647,0.647,0,0,0,.647-0.647V422.2l0.3-.124,1.507,1.506a0.646,0.646,0,0,0,.915,0l3.623-3.623a0.646,0.646,0,0,0,0-.915l-1.506-1.507,0.124-.3h2.155a0.647,0.647,0,0,0,.647-0.647v-5.176A0.648,0.648,0,0,0,113.354,410.764Zm-0.648,5.177h-1.941a0.646,0.646,0,0,0-.6.4l-0.453,1.1s0,0,0,0a0.638,0.638,0,0,0-.047.247,0.63,0.63,0,0,0,.023.121,0.492,0.492,0,0,0,.165.333,0,0,0,0,0,0,0l1.354,1.354-2.709,2.709-1.354-1.354a0,0,0,0,0,0,0,0.577,0.577,0,0,0-.4-0.178,0.426,0.426,0,0,0-.049-0.01,0.653,0.653,0,0,0-.25.047h0l-1.1.453a0.646,0.646,0,0,0-.4.6v1.942h-3.882v-1.942s0,0,0,0a0.635,0.635,0,0,0-.05-0.248,234.965,234.965,0,0,0-.138-0.206,0.642,0.642,0,0,0-.21-0.141h0l-1.1-.453a0.644,0.644,0,0,0-.7.141L97.5,422.209,94.791,419.5l1.355-1.354h0a0.492,0.492,0,0,0,.165-0.331,0.636,0.636,0,0,0,.024-0.123,0.644,0.644,0,0,0-.048-0.247v0l-0.453-1.1a0.646,0.646,0,0,0-.6-0.4H93.294v-3.882h1.941a0.641,0.641,0,0,0,.225-0.046,0.671,0.671,0,0,0,.062-0.028,0.639,0.639,0,0,0,.136-0.092,0.548,0.548,0,0,0,.049-0.043,0.644,0.644,0,0,0,.116-0.172c0-.006.008-0.011,0.01-0.017l0,0,0.453-1.1a0.646,0.646,0,0,0-.141-0.7L94.791,408.5l2.709-2.709,1.354,1.354a0.644,0.644,0,0,0,.7.141l1.1-.453h0a0.493,0.493,0,0,0,.284-0.251,0.594,0.594,0,0,0,.064-0.1,0.635,0.635,0,0,0,.05-0.248s0,0,0,0v-1.942h3.882v1.942a0.646,0.646,0,0,0,.4.6l1.1,0.453h0a0.67,0.67,0,0,0,.166.033,0.781,0.781,0,0,0,.079.015,0.637,0.637,0,0,0,.219-0.043,0.5,0.5,0,0,0,.058-0.027,0.646,0.646,0,0,0,.147-0.1c0.01-.009.023-0.013,0.033-0.023l1.354-1.354,2.709,2.709-1.354,1.354a0.646,0.646,0,0,0-.141.7l0.453,1.1v0c0,0.006.008,0.011,0.011,0.018a0.675,0.675,0,0,0,.115.171c0.016,0.016.032,0.029,0.049,0.043a0.651,0.651,0,0,0,.136.092,0.567,0.567,0,0,0,.061.028,0.641,0.641,0,0,0,.225.046h1.941v3.882Z" transform="translate(-92 -403)"/>
</svg>
