<svg xmlns="http://www.w3.org/2000/svg" width="30.969" height="31.969" viewBox="0 0 30.969 31.969">
  <metadata><?xpacket begin="﻿" id="W5M0MpCehiHzreSzNTczkc9d"?>
<x:xmpmeta xmlns:x="adobe:ns:meta/" x:xmptk="Adobe XMP Core 5.6-c138 79.159824, 2016/09/14-01:09:01        ">
   <rdf:RDF xmlns:rdf="http://www.w3.org/1999/02/22-rdf-syntax-ns#">
      <rdf:Description rdf:about=""/>
   </rdf:RDF>
</x:xmpmeta>





















<?xpacket end="w"?></metadata>
<defs>
    <style>
      .cls-1 {
        fill: #96ae3b;
        fill-rule: evenodd;
      }
    </style>
  </defs>
  <path class="cls-1" d="M955.844,299.661a5.167,5.167,0,0,0,5.164-5.158v-6.19a1.034,1.034,0,0,0-.905-1.024l-23.882-2.982v-0.121a4.7,4.7,0,0,0-2.636-4.017l-2.066-1.032a1.032,1.032,0,1,0-.923,1.846l2.065,1.031a2.642,2.642,0,0,1,1.5,2.172v16.506a4.008,4.008,0,0,0,3.7,4.081,4.083,4.083,0,0,0-.6,2.109,4.131,4.131,0,0,0,8.262,0,4.081,4.081,0,0,0-.574-2.063h7.345a4.081,4.081,0,0,0-.574,2.063,4.131,4.131,0,1,0,4.131-4.126H938.287a1.944,1.944,0,0,1-2.066-2.064v-1.031h19.623Zm-12.393,7.221a2.066,2.066,0,1,1-2.066-2.063A2.067,2.067,0,0,1,943.451,306.882Zm14.458,0a2.066,2.066,0,1,1-2.065-2.063A2.066,2.066,0,0,1,957.909,306.882Zm1.033-12.379a3.1,3.1,0,0,1-3.1,3.094H936.221v-11.21l22.721,2.837V294.5Z" transform="translate(-930.031 -279.031)"/>
</svg>
