<?xml version="1.0" encoding="UTF-8"?>
<svg width="96px" height="60px" viewBox="0 0 96 60" version="1.1" xmlns="http://www.w3.org/2000/svg" xmlns:xlink="http://www.w3.org/1999/xlink">
    <!-- Generator: Sketch 46.2 (44496) - http://www.bohemiancoding.com/sketch -->
    <title>Artboard</title>
    <desc>Created with Sketch.</desc>
    <defs></defs>
    <g id="Page-1" stroke="none" stroke-width="1" fill="none" fill-rule="evenodd">
        <g id="Artboard">
            <g id="icon_visa-electron">
                <rect id="Rectangle-path" fill="#005A9B" x="0" y="0" width="96" height="60"></rect>
                <rect id="Rectangle-path" fill="#FFFFFF" x="1" y="1" width="94" height="58"></rect>
                <rect id="Rectangle-path" fill="#005A9B" x="4" y="4" width="88" height="52"></rect>
                <g id="Group" transform="translate(11.000000, 9.000000)">
                    <path d="M16.9155941,25.8064655 C26.2480198,21.8508621 39.335396,18.2573276 56.6722772,21.8508621 L56.8554455,17.4969828 C38.5660891,15.5237069 25.4420792,21.2896552 16.9247525,25.3810345 L16.9247525,25.8064655 L16.9155941,25.8064655 Z" id="Shape" fill="#FAA929"></path>
                    <polygon id="Shape" fill="#FFFFFF" points="0.0732673267 29.0017241 8.86534653 29.0017241 8.86534653 31.6267241 3.40693069 31.6267241 3.37029703 34.0525862 8.81039604 34.0525862 8.81039604 36.5689655 3.3519802 36.5689655 3.37029703 38.9857759 8.75544554 38.9857759 8.75544554 41.6107759 0.0824257426 41.6107759"></polygon>
                    <rect id="Rectangle-path" fill="#FFFFFF" x="11.0816832" y="27.9517241" width="3.19628713" height="13.6590517"></rect>
                    <path d="M25.2863861,40.5698276 C24.2056931,41.4840517 22.5480198,41.9366379 21.0735149,41.9366379 C17.7032178,41.9366379 16.1829208,39.5741379 16.1829208,37.2206897 C16.1829208,34.4508621 18.280198,32.1064655 21.165099,32.1064655 C24.7002475,32.1064655 25.7992574,34.5866379 25.7992574,37.7366379 L19.3792079,37.7366379 C19.3792079,38.4517241 19.8371287,39.6465517 21.604703,39.6465517 C22.7220297,39.6465517 23.3539604,39.3206897 24.2148515,38.7323276 L25.2863861,40.5698276 Z M22.9326733,35.8719828 C22.9326733,34.9215517 22.4747525,34.0706897 21.4032178,34.0706897 C20.3957921,34.0706897 19.6173267,34.9668103 19.4158416,35.8719828 L22.9326733,35.8719828 Z" id="Shape" fill="#FFFFFF"></path>
                    <path d="M35.5071782,40.9862069 C34.6279703,41.5293103 33.1717822,41.9366379 32.1002475,41.9366379 C29.160396,41.9366379 27.044802,40.262069 27.044802,37.2387931 C27.044802,34.1431034 29.1420792,32.1064655 32.3017327,32.1064655 C33.4007426,32.1064655 34.7287129,32.450431 35.4430693,32.912069 L34.4173267,34.9849138 C33.9410891,34.7857759 33.4282178,34.6228448 32.9061881,34.6228448 C31.3034653,34.6228448 30.2410891,35.5732759 30.2410891,37.0849138 C30.2410891,38.3974138 31.2668317,39.4383621 32.6314356,39.4383621 C33.2358911,39.4383621 33.849505,39.1668103 34.3623762,38.9133621 L35.5071782,40.9862069 Z" id="Shape" fill="#FFFFFF"></path>
                    <path d="M36.6977723,32.4323276 L38.144802,32.4323276 L38.1356436,29.3185345 L41.2128713,29.3185345 L41.139604,32.4323276 L43.7772277,32.4323276 L43.7222772,34.7314655 L41.0938119,34.7314655 C41.0938119,36.0077586 41.0022277,37.3564655 41.0022277,38.1349138 C41.0022277,38.9405172 41.2037129,39.3206897 41.9180693,39.3206897 C42.3576733,39.3206897 42.7240099,39.1034483 43.0903465,38.8862069 L43.7863861,41.0405172 C42.8522277,41.6017241 41.7074257,41.9456897 40.6267327,41.9456897 C38.034901,41.9456897 37.9066832,40.325431 37.9066832,38.2163793 C37.9066832,37.0849138 37.9982673,35.9534483 37.9982673,34.7405172 L36.6153465,34.7405172 L36.6977723,32.4323276 Z" id="Shape" fill="#FFFFFF"></path>
                    <path d="M45.4074257,32.4323276 L48.6037129,32.4323276 L48.6037129,33.7267241 L48.6403465,33.7267241 C49.1165842,32.9482759 49.7485149,32.1788793 50.9940594,32.1788793 C51.3420792,32.1788793 51.7084158,32.2150862 52.0381188,32.2875 L51.6168317,35.4193966 C51.3054455,35.3288793 50.9574257,35.2383621 50.4811881,35.2383621 C49.4188119,35.2383621 48.585396,36.1344828 48.585396,36.3155172 L48.5304455,41.6198276 L45.325,41.6198276 L45.4074257,32.4323276 Z" id="Shape" fill="#FFFFFF"></path>
                    <path d="M57.8445545,32.0974138 C61.269802,32.0974138 63.0282178,34.2426724 63.0282178,37.0125 C63.0282178,39.7823276 61.2606436,41.9275862 57.8445545,41.9275862 C54.4284653,41.9275862 52.6608911,39.7823276 52.6608911,37.0125 C52.6608911,34.2517241 54.4284653,32.0974138 57.8445545,32.0974138 M57.8445545,39.5288793 C59.3740099,39.5288793 59.8319307,38.2163793 59.8319307,37.0125 C59.8319307,35.8086207 59.3740099,34.4961207 57.8445545,34.4961207 C56.315099,34.4961207 55.8571782,35.8086207 55.8571782,37.0125 C55.8571782,38.225431 56.3242574,39.5288793 57.8445545,39.5288793" id="Shape" fill="#FFFFFF"></path>
                    <path d="M64.7774752,32.4323276 L67.9737624,32.4323276 L67.9737624,33.437069 C68.7064356,32.7310345 69.8329208,32.1064655 70.9685644,32.1064655 C72.9376238,32.1064655 74,33.1836207 74,35.6909483 C74,37.5646552 73.9816832,39.5922414 73.9633663,41.6107759 L70.7670792,41.6107759 C70.785396,39.8456897 70.8037129,38.0625 70.8037129,36.1616379 C70.8037129,35.4193966 70.6022277,34.8310345 69.6497525,34.8310345 C69.1368812,34.8310345 68.3950495,35.2655172 67.9737624,35.6637931 L67.9554455,41.6017241 L64.7042079,41.6017241 L64.7774752,32.4323276 Z" id="Shape" fill="#FFFFFF"></path>
                    <polygon id="Shape" fill="#FFFFFF" points="26.4037129 13.5232759 30.4425743 0.316810345 34.0509901 0.316810345 30.0029703 13.5232759"></polygon>
                    <path d="M24.7918317,0.316810345 L21.5497525,5.91077586 C20.725495,7.37715517 20.240099,8.11939655 20.0111386,9.04267241 L19.9653465,9.04267241 C20.020297,7.86594828 19.8554455,6.42672414 19.8371287,5.61206897 L19.4799505,0.307758621 L13.4079208,0.307758621 L13.3438119,0.660775862 C14.9007426,0.660775862 15.8257426,1.43922414 16.0821782,3.02327586 L17.2636139,13.5051724 L21.0002475,13.5051724 L28.5559406,0.307758621 L24.7918317,0.307758621 L24.7918317,0.316810345 Z" id="Shape" fill="#FFFFFF"></path>
                    <path d="M52.8440594,13.5232759 L52.7433168,11.5590517 L48.2373762,11.5590517 L47.3123762,13.5232759 L43.3925743,13.5232759 L50.4903465,0.343965517 L55.2985149,0.343965517 L56.5074257,13.5232759 L52.8440594,13.5232759 Z M52.4319307,5.72974138 C52.395297,4.75215517 52.3586634,3.43060345 52.4227723,2.625 L52.3678218,2.625 C52.1480198,3.27672414 51.204703,5.25 50.7925743,6.21853448 L49.4462871,9.11508621 L52.6059406,9.11508621 L52.4319307,5.72974138 Z" id="Shape" fill="#FFFFFF"></path>
                    <path d="M37.8334158,13.8943966 C35.2873762,13.8943966 33.5930693,13.0978448 32.3933168,12.3827586 L34.115099,9.78491379 C35.1957921,10.3823276 36.0475248,11.0793103 38.0074257,11.0793103 C38.6393564,11.0793103 39.2438119,10.9163793 39.5918317,10.3280172 C40.0955446,9.46810345 39.4727723,9.00646552 38.0715347,8.21896552 L37.375495,7.76637931 C35.2873762,6.35431034 34.3806931,5.01465517 35.369802,2.67025862 C36.0017327,1.16767241 37.6594059,0.0362068966 40.3977723,0.0362068966 C42.2844059,0.0362068966 44.0519802,0.841810345 45.0868812,1.63836207 L43.1086634,3.9375 C42.1012376,3.13189655 41.2678218,2.72456897 40.3153465,2.72456897 C39.555198,2.72456897 38.9782178,3.01422414 38.7767327,3.4125 C38.4012376,4.15474138 38.8957921,4.65258621 39.994802,5.33146552 L40.8190594,5.85646552 C43.3559406,7.44051724 43.960396,9.09698276 43.3193069,10.6538793 C42.220297,13.2969828 40.0772277,13.8943966 37.8334158,13.8943966" id="Shape" fill="#FFFFFF"></path>
                </g>
            </g>
        </g>
    </g>
</svg>