<?xml version="1.0" encoding="utf-8"?>
<!-- Generator: Adobe Illustrator 21.1.0, SVG Export Plug-In . SVG Version: 6.00 Build 0)  -->
<svg version="1.1" id="Layer_1" xmlns="http://www.w3.org/2000/svg" xmlns:xlink="http://www.w3.org/1999/xlink" x="0px" y="0px"
	 viewBox="0 0 54.1 50" style="enable-background:new 0 0 54.1 50;" xml:space="preserve">
<style type="text/css">
	.st0{fill:#75B829;}
	.st1{fill:#C4262E;}
</style>
<g>
	<path class="st0" d="M49.7,8.3C49.7,8.3,49.6,8.3,49.7,8.3h-4.1V8.1c0-0.8-0.7-1.5-1.5-1.5s-1.5,0.7-1.5,1.5v0.2h-6.4V1.5
		c0-0.8-0.7-1.5-1.5-1.5H19.5C18.7,0,18,0.7,18,1.5v6.8h-6.4V8.1c0-0.8-0.7-1.5-1.5-1.5S8.6,7.3,8.6,8.1v0.2H4.5
		C2,8.3,0,10.3,0,12.8v32.7C0,48,2,50,4.5,50h45.1c2.5,0,4.5-2,4.5-4.5V12.8C54.1,10.3,52.1,8.3,49.7,8.3z M21,3h12.1v5.3H21V3z
		 M49.6,47H4.5C3.7,47,3,46.3,3,45.5V12.8c0-0.8,0.7-1.5,1.5-1.5h11.3h3.1l0,0h30.8c0.8,0,1.5,0.7,1.5,1.5v32.7l0,0
		C51.1,46.3,50.5,47,49.6,47z"/>
	<path class="st1" d="M16,11.3c0.6,3.9,2.7,7.9,4.8,10.9c-3.2,3.1-3.8,7.9-1.4,11.6l7.3,11.6c0.5,0.6,1.4,0.8,2.1,0.5l13.1-8.3
		c0.7-0.4,0.9-1.4,0.5-2.1L35,24c-2.5-3.9-7.5-5.4-11.8-3.4c-2-2.8-3.4-6-4.2-9.3 M28.4,42.6l-6.5-10.3c-1.5-2.4-1.2-5.4,0.6-7.5
		c1.3,1.8,2.3,2.9,2.5,3c0.6,0.5,1.5,0.5,2.1,0.1c0.6-0.5,0.7-1.5,0.1-2.1c0,0,0,0-0.1-0.1c0,0-0.9-1-2.2-2.7
		c0.7-0.2,4.6-1.9,7.4,2.5L39,35.9L28.4,42.6z"/>
</g>
</svg>
