<?xml version="1.0" encoding="utf-8"?>
<!-- Generator: Adobe Illustrator 22.0.0, SVG Export Plug-In . SVG Version: 6.00 Build 0)  -->
<svg version="1.1" id="Livello_1" xmlns="http://www.w3.org/2000/svg" xmlns:xlink="http://www.w3.org/1999/xlink" x="0px" y="0px"
	 viewBox="0 0 26 26" style="enable-background:new 0 0 26 26;" xml:space="preserve">
<style type="text/css">
	.st0{fill:#006643;}
</style>
<path class="st0" d="M15.8,13l8.6-8.6c0.8-0.8,0.8-2,0-2.8c-0.8-0.8-2-0.8-2.8,0L13,10.2L4.4,1.6c-0.8-0.8-2-0.8-2.8,0
	c-0.8,0.8-0.8,2,0,2.8l8.6,8.6l-8.6,8.6c-0.8,0.8-0.8,2,0,2.8C2,24.8,2.5,25,3,25s1-0.2,1.4-0.6l8.6-8.6l8.6,8.6
	C22,24.8,22.5,25,23,25s1-0.2,1.4-0.6c0.8-0.8,0.8-2,0-2.8L15.8,13z"/>
</svg>
