<svg xmlns="http://www.w3.org/2000/svg" width="20.06" height="19.969" viewBox="0 0 20.06 19.969">
  <metadata><?xpacket begin="﻿" id="W5M0MpCehiHzreSzNTczkc9d"?>
<x:xmpmeta xmlns:x="adobe:ns:meta/" x:xmptk="Adobe XMP Core 5.6-c138 79.159824, 2016/09/14-01:09:01        ">
   <rdf:RDF xmlns:rdf="http://www.w3.org/1999/02/22-rdf-syntax-ns#">
      <rdf:Description rdf:about=""/>
   </rdf:RDF>
</x:xmpmeta>
                                                                                                    
                                                                                                    
                                                                                                    
                                                                                                    
                                                                                                    
                                                                                                    
                                                                                                    
                                                                                                    
                                                                                                    
                                                                                                    
                                                                                                    
                                                                                                    
                                                                                                    
                                                                                                    
                                                                                                    
                                                                                                    
                                                                                                    
                                                                                                    
                                                                                                    
                                                                                                    
                           
<?xpacket end="w"?></metadata>
<defs>
    <style>
      .cls-1 {
        fill: #006643;
        fill-rule: evenodd;
      }
    </style>
  </defs>
  <path id="Shape_6_copia" data-name="Shape 6 copia" class="cls-1" d="M1186.9,983.067a0.853,0.853,0,0,0-.86.852v5.972h-12.86V977.1h5.14a0.853,0.853,0,1,0,0-1.706h-6a0.851,0.851,0,0,0-.85.853v14.5a0.851,0.851,0,0,0,.85.853h14.58a0.851,0.851,0,0,0,.85-0.853v-6.825A0.85,0.85,0,0,0,1186.9,983.067Zm4.38-7.61-3.63-3.6a0.857,0.857,0,0,0-1.21,0l-8.4,8.392a0.851,0.851,0,0,0-.24.471l-0.67,4.28a0.851,0.851,0,0,0,.85.984,0.813,0.813,0,0,0,.13-0.01l4.3-.685a0.851,0.851,0,0,0,.47-0.24l8.4-8.392A0.852,0.852,0,0,0,1191.28,975.457Zm-9.42,8.2-2.86.455,0.45-2.848,5.27-5.262,2.41,2.4Zm6.48-6.467-2.41-2.4,1.12-1.121,2.41,2.392Z" transform="translate(-1171.47 -971.625)"/>
</svg>
