<svg xmlns="http://www.w3.org/2000/svg" width="24.406" height="20" viewBox="0 0 24.406 20">
  <metadata><?xpacket begin="﻿" id="W5M0MpCehiHzreSzNTczkc9d"?>
<x:xmpmeta xmlns:x="adobe:ns:meta/" x:xmptk="Adobe XMP Core 5.6-c138 79.159824, 2016/09/14-01:09:01        ">
   <rdf:RDF xmlns:rdf="http://www.w3.org/1999/02/22-rdf-syntax-ns#">
      <rdf:Description rdf:about=""/>
   </rdf:RDF>
</x:xmpmeta>
                                                                                                    
                                                                                                    
                                                                                                    
                                                                                                    
                                                                                                    
                                                                                                    
                                                                                                    
                                                                                                    
                                                                                                    
                                                                                                    
                                                                                                    
                                                                                                    
                                                                                                    
                                                                                                    
                                                                                                    
                                                                                                    
                                                                                                    
                                                                                                    
                                                                                                    
                                                                                                    
                           
<?xpacket end="w"?></metadata>
<defs>
    <style>
      .cls-1 {
        fill: #006643;
        fill-rule: evenodd;
      }
    </style>
  </defs>
  <path class="cls-1" d="M63.291,716.683H62.117v-2.695H43.19v8.7a7.653,7.653,0,0,0,2.774,5.9H43.055a1.661,1.661,0,0,0-1.582,1.192,1.822,1.822,0,0,0,.62,2.037l2.678,1.99a0.859,0.859,0,0,0,.511.17H60.025a0.859,0.859,0,0,0,.511-0.17l2.678-1.99a1.822,1.822,0,0,0,.62-2.037,1.661,1.661,0,0,0-1.582-1.192H59.343A7.656,7.656,0,0,0,62,723.987h1.292a2.506,2.506,0,0,0,2.492-2.513V719.2A2.505,2.505,0,0,0,63.291,716.683ZM62.185,730.3a0.153,0.153,0,0,1,.006.124l-2.45,1.821H45.568L43.1,730.4a0.111,0.111,0,0,0-.011-0.064l7.452-.012c0.075,0,.149.012,0.225,0.012h3.769c0.12,0,.237-0.013.356-0.018ZM54.538,728.6H50.769a5.887,5.887,0,0,1-5.857-5.9v-6.967H60.394v1.65a0.88,0.88,0,0,0-.044.221v5.478a0.868,0.868,0,0,0,.02.1A5.881,5.881,0,0,1,54.538,728.6Zm9.435-7.122a0.685,0.685,0,0,1-.681.687h-1.13v-3.652h1.13a0.684,0.684,0,0,1,.681.687v2.278Z" transform="translate(-41.375 -714)"/>
</svg>
