<svg xmlns="http://www.w3.org/2000/svg" width="24" height="24" viewBox="0 0 24 24">
  <metadata><?xpacket begin="﻿" id="W5M0MpCehiHzreSzNTczkc9d"?>
<x:xmpmeta xmlns:x="adobe:ns:meta/" x:xmptk="Adobe XMP Core 5.6-c138 79.159824, 2016/09/14-01:09:01        ">
   <rdf:RDF xmlns:rdf="http://www.w3.org/1999/02/22-rdf-syntax-ns#">
      <rdf:Description rdf:about=""/>
   </rdf:RDF>
</x:xmpmeta>
                                                                                                    
                                                                                                    
                                                                                                    
                                                                                                    
                                                                                                    
                                                                                                    
                                                                                                    
                                                                                                    
                                                                                                    
                                                                                                    
                                                                                                    
                                                                                                    
                                                                                                    
                                                                                                    
                                                                                                    
                                                                                                    
                                                                                                    
                                                                                                    
                                                                                                    
                                                                                                    
                           
<?xpacket end="w"?></metadata>
<defs>
    <style>
      .cls-1 {
        fill: #006643;
        fill-rule: evenodd;
      }
    </style>
  </defs>
  <path id="Alert" class="cls-1" d="M186,823a12,12,0,1,1,12-12A12.014,12.014,0,0,1,186,823Zm0-22.325A10.325,10.325,0,1,0,196.325,811,10.336,10.336,0,0,0,186,800.675Zm0,17.3a0.837,0.837,0,0,1-.837-0.837v-6.7a0.837,0.837,0,0,1,1.674,0v6.7A0.837,0.837,0,0,1,186,817.976Zm0-10.827a0.837,0.837,0,0,1-.837-0.837V805.2a0.837,0.837,0,1,1,1.674,0v1.116A0.837,0.837,0,0,1,186,807.149Z" transform="translate(-174 -799)"/>
</svg>
