<svg id="ico_millemiglia" xmlns="http://www.w3.org/2000/svg" width="44" height="44" viewBox="0 0 44 44">
  <metadata><?xpacket begin="﻿" id="W5M0MpCehiHzreSzNTczkc9d"?>
<x:xmpmeta xmlns:x="adobe:ns:meta/" x:xmptk="Adobe XMP Core 5.6-c138 79.159824, 2016/09/14-01:09:01        ">
   <rdf:RDF xmlns:rdf="http://www.w3.org/1999/02/22-rdf-syntax-ns#">
      <rdf:Description rdf:about=""/>
   </rdf:RDF>
</x:xmpmeta>
                                                                                                    
                                                                                                    
                                                                                                    
                                                                                                    
                                                                                                    
                                                                                                    
                                                                                                    
                                                                                                    
                                                                                                    
                                                                                                    
                                                                                                    
                                                                                                    
                                                                                                    
                                                                                                    
                                                                                                    
                                                                                                    
                                                                                                    
                                                                                                    
                                                                                                    
                                                                                                    
                           
<?xpacket end="w"?></metadata>
<defs>
    <style>
      .cls-1 {
        fill: #fff;
        stroke: #006643;
        stroke-width: 1px;
      }

      .cls-2 {
        fill: #006643;
        fill-rule: evenodd;
      }
    </style>
  </defs>
  <circle class="cls-1" cx="22" cy="22" r="21"/>
  <path class="cls-2" d="M51.04,502.058c7,1.236,12,2.515,13.475,2.851a3.722,3.722,0,0,0,.621.048,6.871,6.871,0,0,0,4.316-1.581c-6.389-1.127-11.723-2.342-15.06-2.342-1.632,0-2.786.291-3.352,1.024m23.6-3.309H52.538a6.3,6.3,0,0,0,.02,12.606h0.007a6.227,6.227,0,0,0,6.029-4.9,0.179,0.179,0,0,1,.2-0.134,0.483,0.483,0,0,1,.118.015s1.412,0.464,2.371.751a2.327,2.327,0,0,0,.643.082,2.215,2.215,0,0,0,1.32-.369c-3.081-.815-8.911-2.53-8.911-2.53s-0.687.224-.415,0.365c0.2,0.1,3.664,1.187,4.051,1.383,0.178,0.087.251,0.138,0.229,0.31l-0.065.315a5.384,5.384,0,0,1-5.247,4.129h-0.01a5.316,5.316,0,1,1-.012-10.632s0.211-.008.283-0.008c4.807,0.118,16.224,2.182,16.224,2.182,2.427-.006,5.75-3.088,5.271-3.569" transform="translate(-38 -482)"/>
</svg>
