<svg xmlns="http://www.w3.org/2000/svg" width="16" height="28" viewBox="0 0 16 28">
  <metadata><?xpacket begin="﻿" id="W5M0MpCehiHzreSzNTczkc9d"?>
<x:xmpmeta xmlns:x="adobe:ns:meta/" x:xmptk="Adobe XMP Core 5.6-c138 79.159824, 2016/09/14-01:09:01        ">
   <rdf:RDF xmlns:rdf="http://www.w3.org/1999/02/22-rdf-syntax-ns#">
      <rdf:Description rdf:about=""/>
   </rdf:RDF>
</x:xmpmeta>
                                                                                                    
                                                                                                    
                                                                                                    
                                                                                                    
                                                                                                    
                                                                                                    
                                                                                                    
                                                                                                    
                                                                                                    
                                                                                                    
                                                                                                    
                                                                                                    
                                                                                                    
                                                                                                    
                                                                                                    
                                                                                                    
                                                                                                    
                                                                                                    
                                                                                                    
                                                                                                    
                           
<?xpacket end="w"?></metadata>
<defs>
    <style>
      .cls-1 {
        fill: #676767;
        fill-rule: evenodd;
      }
    </style>
  </defs>
  <path id="close_copia_20_copy_3" data-name="close copia 20 copy 3" class="cls-1" d="M80,437a1.474,1.474,0,0,1,.448-1.052l12.624-12.457a1.791,1.791,0,0,1,2.378-.08,1.459,1.459,0,0,1,.088,2.184L83.983,437l11.559,11.4a1.46,1.46,0,0,1-.088,2.184,1.79,1.79,0,0,1-2.378-.079L80.451,438.05A1.476,1.476,0,0,1,80,437Z" transform="translate(-80 -423)"/>
</svg>
