<?xml version="1.0" encoding="utf-8"?>
<!-- Generator: Adobe Illustrator 21.1.0, SVG Export Plug-In . SVG Version: 6.00 Build 0)  -->
<svg version="1.1" id="Layer_1" xmlns="http://www.w3.org/2000/svg" xmlns:xlink="http://www.w3.org/1999/xlink" x="0px" y="0px"
	 viewBox="0 0 45 45" style="enable-background:new 0 0 45 45;" xml:space="preserve">
<style type="text/css">
	.st0{fill:#CBCBCB;}
</style>
<path class="st0" d="M29.2,12H15.8c-2.1,0-3.9,1.7-3.9,3.9v13.4c0,2.1,1.7,3.9,3.9,3.9h13.4c2.1,0,3.9-1.7,3.9-3.9V15.8
	C33.1,13.7,31.3,12,29.2,12z M22.5,29.5c-3.8,0-7-3.1-7-7c0-3.8,3.1-7,7-7c3.8,0,7,3.1,7,7C29.5,26.4,26.3,29.5,22.5,29.5z M29.7,17
	c-0.9,0-1.6-0.7-1.6-1.7s0.7-1.7,1.7-1.7c0.9,0,1.6,0.7,1.6,1.7C31.3,16.3,30.6,17,29.7,17C29.7,17,29.7,17,29.7,17L29.7,17z
	 M22.5,18.5c-2.2,0-4,1.8-4,4s1.8,4,4,4c2.2,0,4-1.8,4-4C26.5,20.3,24.7,18.5,22.5,18.5z M22.5,0C10.1,0,0,10.1,0,22.5
	S10.1,45,22.5,45S45,34.9,45,22.5S34.9,0,22.5,0L22.5,0z M36,29.3c0,3.8-3.1,6.8-6.8,6.8H15.8C12,36.1,9,33,9,29.3V15.8
	C9,12.1,12,9,15.8,9h13.4C33,9,36,12.1,36,15.8L36,29.3L36,29.3z"/>
</svg>
