<?xml version="1.0" encoding="utf-8"?>
<!-- Generator: Adobe Illustrator 22.0.0, SVG Export Plug-In . SVG Version: 6.00 Build 0)  -->
<svg version="1.1" id="Livello_1" xmlns="http://www.w3.org/2000/svg" xmlns:xlink="http://www.w3.org/1999/xlink" x="0px" y="0px"
	 viewBox="0 0 39 39" style="enable-background:new 0 0 39 39;" xml:space="preserve">
<style type="text/css">
	.st0{fill:#006643;}
</style>
<path class="st0" d="M37,2.3c-1.1-1.1-2.6-1.8-4.2-1.8c-1.7,0-3.2,0.6-4.2,1.7l-4.6,4.5L8.5,3.4C8.2,3.3,8,3.3,7.8,3.3
	C7,3.3,6.2,3.6,5.7,4.2L3.4,6.4C2.7,7.1,2.4,8.1,2.5,9c0.2,1,0.8,1.8,1.6,2.2l10,5.2l-3.1,3l-4.9-0.9c-0.1,0-0.1,0-0.2,0
	c-0.1,0-0.2,0-0.2,0c-0.9,0-1.6,0.3-2.1,0.9l-2.4,2.4c-0.7,0.7-1,1.7-0.9,2.7c0.2,1,0.8,1.8,1.7,2.2L8.9,30l3.3,6.8
	c0.4,0.9,1.3,1.5,2.3,1.7c0,0,0.1,0,0.1,0c0.1,0,0.2,0,0.3,0c0,0,0,0,0,0c0.8,0,1.6-0.3,2.1-0.9l2.3-2.2c0.7-0.7,1-1.7,0.9-2.6
	L19.5,28l3.1-3l5,10.1c0.4,0.8,1.2,1.5,2.3,1.7c0,0,0.1,0,0.1,0c0.1,0,0.2,0,0.3,0c0.8,0,1.6-0.3,2.1-0.9l2.3-2.2
	c0.7-0.7,1-1.7,0.9-2.7l-3-15.6l4.6-4.5C39.2,8.4,39.2,4.5,37,2.3z M19.9,15.4l-13.7-7l1.6-1.6l16.9,3.6l0.3,0.1l5.9-5.8
	C31.5,4.1,32.2,4,32.7,4c0.6,0,1.3,0.3,1.8,0.7c0.5,0.5,0.7,1.1,0.7,1.8s-0.3,1.3-0.7,1.8L28.5,14l3.4,17.2l-1.6,1.6L23.4,19
	l-7.8,7.7l1,6.3L15,34.6l-3.5-7.3l-7.4-3.6L5.8,22l6.3,1.1L19.9,15.4z"/>
</svg>
