<?xml version="1.0" encoding="utf-8"?>
<!-- Generator: Adobe Illustrator 20.1.0, SVG Export Plug-In . SVG Version: 6.00 Build 0)  -->
<svg version="1.1" id="Layer_1" xmlns="http://www.w3.org/2000/svg" xmlns:xlink="http://www.w3.org/1999/xlink" x="0px" y="0px"
	 viewBox="0 0 73 32" style="enable-background:new 0 0 73 32;" xml:space="preserve">
<style type="text/css">
	.st0{fill:none;enable-background:new    ;}
	.st1{fill:#006643;}
</style>
<path class="st0" d="z"/>
<path class="st1" d="M12.1,8.4c18,3.1,30.9,6.4,34.7,7.3c0.5,0.1,1.1,0.1,1.6,0.1c4,0,9.3-1.9,11.1-4c-16.5-2.9-30.3-6-38.9-6
	C16.5,5.8,13.5,6.6,12.1,8.4 M72.9,0H16C7.2,0,0,7.2,0,16c0,8.9,7.2,16,16,16l0,0c7.5,0,13.9-5.3,15.6-12.4c0-0.2,0.2-0.4,0.5-0.4
	c0.1,0,0.2,0,0.3,0c0,0,3.7,1.2,6.1,1.9c0.5,0.1,1.1,0.2,1.6,0.2c1.3,0,2.6-0.3,3.4-1c-7.9-2-22.9-6.4-22.9-6.4s-1.7,0.6-1.1,1
	c0.5,0.3,9.5,3,10.4,3.5c0.5,0.2,0.7,0.4,0.6,0.8l-0.2,0.8c-1.5,6-7,10.4-13.5,10.4l0,0C9.2,30.5,2.9,24.5,2.9,17S9.1,3.6,16.7,3.5
	c0,0,0.6,0,0.8,0C29.9,3.8,59.3,9,59.3,9C65.5,9,74.1,1.3,72.9,0"/>
</svg>
