<svg xmlns="http://www.w3.org/2000/svg" width="34" height="36" style=""><rect id="backgroundrect" width="100%" height="100%" x="0" y="0" fill="none" stroke="none"/>
  <metadata><?xpacket begin="﻿" id="W5M0MpCehiHzreSzNTczkc9d"?>
<x:xmpmeta xmlns:x="adobe:ns:meta/" x:xmptk="Adobe XMP Core 5.6-c140 79.160451, 2017/05/06-01:08:21        ">
   <rdf:RDF xmlns:rdf="http://www.w3.org/1999/02/22-rdf-syntax-ns#">
      <rdf:Description rdf:about=""/>
   </rdf:RDF>
</x:xmpmeta>
                                                                                                    
                                                                                                    
                                                                                                    
                                                                                                    
                                                                                                    
                                                                                                    
                                                                                                    
                                                                                                    
                                                                                                    
                                                                                                    
                                                                                                    
                                                                                                    
                                                                                                    
                                                                                                    
                                                                                                    
                                                                                                    
                                                                                                    
                                                                                                    
                                                                                                    
                                                                                                    
                           
<?xpacket end="w"?></metadata>
<defs>
    <style>
      .cls-1 {
        fill: #008054;
        fill-rule: evenodd;
      }
    </style>
  </defs>
  
<g class="currentLayer" style=""><title>Layer 1</title><path class="cls-1 selected" d="M13.958005859375021,32.01999999999998 l-9.878,-0.030000000000000006 v-28 l9.868,0.020000000000000004 h0 a2,2 0 1 0 0,-3.99 l-13.95,-0.030000000000000006 v35.98 l13.941,0.030000000000000006 h0 A1.99,1.99 0 1 0 13.958005859375021,32.01999999999998 zm19.513,-15.35 l-5.909,-6.42 a2.063,2.063 0 0 0 -2.8760000000000003,-0.15000000000000002 a1.959,1.959 0 0 0 -0.15100000000000002,2.81 l2.849,3.1 H13.953005859375025 a1.991,1.991 0 1 0 0,3.98 h13.431000000000001 l-2.849,3.1 a1.96,1.96 0 0 0 0.15100000000000002,2.81 a2.068,2.068 0 0 0 1.362,0.51 a2.043,2.043 0 0 0 1.514,-0.6600000000000001 l5.909,-6.42 A1.953,1.953 0 0 0 33.471005859375055,16.670000000000073 z" id="svg_1" transform="rotate(-179.5983123779297 16.995933532714844,17.99501228332519) "/></g></svg>