<?xml version="1.0" encoding="utf-8"?>
<!-- Generator: Adobe Illustrator 21.1.0, SVG Export Plug-In . SVG Version: 6.00 Build 0)  -->
<svg version="1.1" id="Layer_1" xmlns="http://www.w3.org/2000/svg" xmlns:xlink="http://www.w3.org/1999/xlink" x="0px" y="0px"
	 viewBox="0 0 50 50" style="enable-background:new 0 0 50 50;" xml:space="preserve">
<style type="text/css">
	.st0{fill:#ED3726;}
	.st1{fill:#FFD201;}
</style>
<path class="st0" d="M19,49.3c12.5,3.1,25.1-3.8,29.4-15.6H1.6C4.3,41.2,10.6,47.2,19,49.3z"/>
<path class="st0" d="M31,0.7C18.4-2.4,5.7,4.6,1.5,16.6h47.1C45.8,9,39.5,2.8,31,0.7z"/>
<path class="st1" d="M48.5,16.6H1.5c-0.3,0.8-0.5,1.6-0.7,2.4C-0.5,24-0.1,29.1,1.6,33.7h46.9c0.3-0.9,0.6-1.7,0.8-2.7
	C50.5,26,50.1,21.1,48.5,16.6z"/>
</svg>
