<?xml version="1.0" encoding="utf-8"?>
<!-- Generator: Adobe Illustrator 21.1.0, SVG Export Plug-In . SVG Version: 6.00 Build 0)  -->
<svg version="1.1" id="Livello_1" xmlns="http://www.w3.org/2000/svg" xmlns:xlink="http://www.w3.org/1999/xlink" x="0px" y="0px"
	 viewBox="0 0 14.4 10" style="enable-background:new 0 0 14.4 10;" xml:space="preserve">
<style type="text/css">
	.st0{fill:#006643;}
</style>
<g>
	<path class="st0" d="M7.2,2.9C6,2.9,5.1,3.9,5.1,5c0,1.2,1,2.1,2.1,2.1c1.2,0,2.1-0.9,2.1-2.1c0,0,0,0,0,0C9.3,3.8,8.3,2.9,7.2,2.9
		z M8.3,5c0,0.6-0.5,1.1-1.1,1.1C6.6,6.1,6.1,5.6,6.1,5c0-0.6,0.5-1.1,1.1-1.1v0c0,0,0,0,0,0C7.8,3.9,8.3,4.4,8.3,5
		C8.3,5,8.3,5,8.3,5z"/>
	<path class="st0" d="M14.4,5c0-0.1,0-0.2,0-0.2c-0.8-1.9-2.3-3.4-4.2-4.2C6.2-1,1.7,0.9,0,4.8c0,0,0,0,0,0c0,0,0,0,0,0
		c0,0,0,0,0,0.1C0,5,0,5,0,5c0,0,0,0.1,0,0.1c0,0,0,0,0,0.1c0,0,0,0,0,0c0,0,0,0,0,0C1.4,8,4.1,9.9,7.2,10v0c3.1-0.2,5.8-2,7.1-4.8
		C14.4,5.2,14.4,5.1,14.4,5z M9.8,8.6C6.4,10,2.5,8.4,1,5c0.7-1.6,2-2.8,3.6-3.5C8,0.1,11.9,1.6,13.4,5C12.7,6.6,11.4,7.9,9.8,8.6z"
		/>
</g>
</svg>
