<svg xmlns="http://www.w3.org/2000/svg" width="9" height="16" viewBox="0 0 9 16">
  <metadata><?xpacket begin="﻿" id="W5M0MpCehiHzreSzNTczkc9d"?>
<x:xmpmeta xmlns:x="adobe:ns:meta/" x:xmptk="Adobe XMP Core 5.6-c138 79.159824, 2016/09/14-01:09:01        ">
   <rdf:RDF xmlns:rdf="http://www.w3.org/1999/02/22-rdf-syntax-ns#">
      <rdf:Description rdf:about=""/>
   </rdf:RDF>
</x:xmpmeta>
                                                                                                    
                                                                                                    
                                                                                                    
                                                                                                    
                                                                                                    
                                                                                                    
                                                                                                    
                                                                                                    
                                                                                                    
                                                                                                    
                                                                                                    
                                                                                                    
                                                                                                    
                                                                                                    
                                                                                                    
                                                                                                    
                                                                                                    
                                                                                                    
                                                                                                    
                                                                                                    
                           
<?xpacket end="w"?></metadata>
<defs>
    <style>
      .cls-1 {
        fill: #006643;
        fill-rule: evenodd;
      }
    </style>
  </defs>
  <path id="Forma_2_copia_5" data-name="Forma 2 copia 5" class="cls-1" d="M1153.99,2451a0.875,0.875,0,0,1-.25.6l-7.1,7.12a1,1,0,0,1-1.34.05,0.836,0.836,0,0,1-.05-1.25l6.5-6.52-6.5-6.52a0.832,0.832,0,0,1,.05-1.24,0.987,0.987,0,0,1,1.34.04l7.1,7.12A0.875,0.875,0,0,1,1153.99,2451Z" transform="translate(-1145 -2443)"/>
</svg>
