<svg xmlns="http://www.w3.org/2000/svg" width="27.719" height="20" viewBox="0 0 27.719 20">
  <metadata><?xpacket begin="﻿" id="W5M0MpCehiHzreSzNTczkc9d"?>
<x:xmpmeta xmlns:x="adobe:ns:meta/" x:xmptk="Adobe XMP Core 5.6-c138 79.159824, 2016/09/14-01:09:01        ">
   <rdf:RDF xmlns:rdf="http://www.w3.org/1999/02/22-rdf-syntax-ns#">
      <rdf:Description rdf:about=""/>
   </rdf:RDF>
</x:xmpmeta>
                                                                                                    
                                                                                                    
                                                                                                    
                                                                                                    
                                                                                                    
                                                                                                    
                                                                                                    
                                                                                                    
                                                                                                    
                                                                                                    
                                                                                                    
                                                                                                    
                                                                                                    
                                                                                                    
                                                                                                    
                                                                                                    
                                                                                                    
                                                                                                    
                                                                                                    
                                                                                                    
                           
<?xpacket end="w"?></metadata>
<defs>
    <style>
      .cls-1 {
        fill: #676767;
        fill-rule: evenodd;
      }
    </style>
  </defs>
  <path class="cls-1" d="M114.446,200.93h-22.9a2.389,2.389,0,0,0-2.406,2.422v15.159a2.389,2.389,0,0,0,2.406,2.422h22.825a2.486,2.486,0,0,0,2.483-2.344V203.352A2.388,2.388,0,0,0,114.446,200.93Zm-0.077,18.753H91.544a1.143,1.143,0,0,1-1.165-1.172V203.352a1.143,1.143,0,0,1,1.165-1.172h22.9a1.143,1.143,0,0,1,1.165,1.172l0,15.185A1.241,1.241,0,0,1,114.369,219.683Zm-2.1-13.283h-5.434a0.625,0.625,0,0,0,0,1.25h5.434A0.625,0.625,0,0,0,112.272,206.4Zm0,3.907h-5.434a0.625,0.625,0,0,0,0,1.249h5.434A0.625,0.625,0,0,0,112.272,210.307Zm0,3.906h-5.434a0.625,0.625,0,0,0,0,1.25h5.434A0.625,0.625,0,0,0,112.272,214.213Zm-11.5-2.944a3.2,3.2,0,0,0,.478-1.666v-1.485a3.339,3.339,0,0,0-6.676,0V209.6a3.2,3.2,0,0,0,.455,1.625A5.151,5.151,0,0,0,93,213.911a1.237,1.237,0,0,0,.116,1.031,5.6,5.6,0,0,0,4.715,2.084c2.178,0,4.027-.823,4.724-2.1a1.259,1.259,0,0,0,.126-0.97A5.2,5.2,0,0,0,100.77,211.269Zm-4.956-3.151a2.1,2.1,0,0,1,4.192,0V209.6a1.97,1.97,0,0,1-.385,1.166h0l-0.269.252a2.145,2.145,0,0,1-2.619.261,2.015,2.015,0,0,1-.918-1.679v-1.485Zm5.662,6.192c-0.457.863-1.955,1.466-3.644,1.466a4.583,4.583,0,0,1-3.645-1.473,3.832,3.832,0,0,1,1.515-2.031c0.047-.024.1-0.047,0.163-0.071,0.04,0.03.083,0.05,0.124,0.077,0.058,0.04.119,0.075,0.179,0.112,0.1,0.056.191,0.109,0.29,0.155s0.206,0.092.314,0.131c0.054,0.018.108,0.034,0.163,0.05a3.237,3.237,0,0,0,2.98-.515l0.105,0.051a3.893,3.893,0,0,1,1.461,2.039Z" transform="translate(-89.125 -200.938)"/>
</svg>
