<svg xmlns="http://www.w3.org/2000/svg" width="20.938" height="26" viewBox="0 0 20.938 26">
  <metadata><?xpacket begin="﻿" id="W5M0MpCehiHzreSzNTczkc9d"?>
<x:xmpmeta xmlns:x="adobe:ns:meta/" x:xmptk="Adobe XMP Core 5.6-c138 79.159824, 2016/09/14-01:09:01        ">
   <rdf:RDF xmlns:rdf="http://www.w3.org/1999/02/22-rdf-syntax-ns#">
      <rdf:Description rdf:about=""/>
   </rdf:RDF>
</x:xmpmeta>
                                                                                                    
                                                                                                    
                                                                                                    
                                                                                                    
                                                                                                    
                                                                                                    
                                                                                                    
                                                                                                    
                                                                                                    
                                                                                                    
                                                                                                    
                                                                                                    
                                                                                                    
                                                                                                    
                                                                                                    
                                                                                                    
                                                                                                    
                                                                                                    
                                                                                                    
                                                                                                    
                           
<?xpacket end="w"?></metadata>
<defs>
    <style>
      .cls-1 {
        fill: #676767;
        fill-rule: evenodd;
      }
    </style>
  </defs>
  <path id="Preferences_" data-name="Preferences " class="cls-1" d="M102.976,350.9l-4.775,2.55a1.414,1.414,0,0,1-.712.189,1.53,1.53,0,0,1-.847-0.259,1.646,1.646,0,0,1-.711-1.562l0.893-5.514c0-.008,0-0.017,0-0.025a0.291,0.291,0,0,0-.044-0.071l-3.792-3.842a1.568,1.568,0,0,1-.38-1.623,1.533,1.533,0,0,1,1.3-1.017l5.3-.813,0.009,0a0.809,0.809,0,0,0,.115-0.131l2.315-4.932a1.526,1.526,0,0,1,2.758.068l0.006,0.014,2.339,4.986c0.011,0.022.02,0.044,0.029,0.067-0.007-.028.048,0,0.137,0.025l5.259,0.8a1.5,1.5,0,0,1,1.207,1.042,1.563,1.563,0,0,1-.319,1.594l-3.883,3.771h0a0.972,0.972,0,0,1-.017.157l0.875,5.405a1.644,1.644,0,0,1-.662,1.561,1.511,1.511,0,0,1-1.59.114l-4.805-2.556m-0.009-1.5a1.4,1.4,0,0,1,.782.251l4.7,2.494a0.072,0.072,0,0,0,.087,0,0.165,0.165,0,0,0,.065-0.15l-0.883-5.45a0.673,0.673,0,0,1-.011-0.118,1.855,1.855,0,0,1,.456-1.257l3.883-3.77a0.934,0.934,0,0,0-.077-0.131l-5.339-.818a1.589,1.589,0,0,1-1.207-.933l-2.32-4.945a0.146,0.146,0,0,0-.1-0.09,0.085,0.085,0,0,0-.069.048l-2.314,4.937a1.053,1.053,0,0,1-.052.093,1.6,1.6,0,0,1-1.181.815l-5.286.811a0.137,0.137,0,0,0-.115.046,0.094,0.094,0,0,0,.036.1l3.792,3.842a1.578,1.578,0,0,1,.439,1.417l-0.881,5.434a0.15,0.15,0,0,0,.07.131,0.42,0.42,0,0,1,.066,0,0.045,0.045,0,0,0,.02,0l4.761-2.533A1.189,1.189,0,0,1,102.97,349.4Zm-6.119-3.21h0Zm9.93-7.195h0Zm-7.466-.093h0Zm10.167,20.107H96.572a0.736,0.736,0,0,1,0-1.472h12.91A0.736,0.736,0,0,1,109.482,359.008Z" transform="translate(-92.531 -333)"/>
</svg>
