<svg xmlns="http://www.w3.org/2000/svg" width="25.312" height="20" viewBox="0 0 25.312 20">
  <metadata><?xpacket begin="﻿" id="W5M0MpCehiHzreSzNTczkc9d"?>
<x:xmpmeta xmlns:x="adobe:ns:meta/" x:xmptk="Adobe XMP Core 5.6-c138 79.159824, 2016/09/14-01:09:01        ">
   <rdf:RDF xmlns:rdf="http://www.w3.org/1999/02/22-rdf-syntax-ns#">
      <rdf:Description rdf:about=""/>
   </rdf:RDF>
</x:xmpmeta>
                                                                                                    
                                                                                                    
                                                                                                    
                                                                                                    
                                                                                                    
                                                                                                    
                                                                                                    
                                                                                                    
                                                                                                    
                                                                                                    
                                                                                                    
                                                                                                    
                                                                                                    
                                                                                                    
                                                                                                    
                                                                                                    
                                                                                                    
                                                                                                    
                                                                                                    
                                                                                                    
                           
<?xpacket end="w"?></metadata>
<defs>
    <style>
      .cls-1 {
        fill: #006643;
        fill-rule: evenodd;
      }
    </style>
  </defs>
  <path id="Dash" class="cls-1" d="M115.5,86.5H104.833a0.666,0.666,0,0,1-.666-0.667V75.167a0.666,0.666,0,0,1,.666-0.667H115.5a0.666,0.666,0,0,1,.667.667V85.834A0.666,0.666,0,0,1,115.5,86.5Zm-10-1.333h9.334V75.833H105.5v9.334Zm10-12H104.833a0.666,0.666,0,0,1-.666-0.667V67.166a0.666,0.666,0,0,1,.666-0.667H115.5a0.667,0.667,0,0,1,.667.667V72.5A0.667,0.667,0,0,1,115.5,73.167Zm-10-1.333h9.334v-4H105.5v4ZM102.167,78.5H91.5a0.666,0.666,0,0,1-.667-0.667V67.166A0.667,0.667,0,0,1,91.5,66.5h10.667a0.666,0.666,0,0,1,.666.667V77.833A0.666,0.666,0,0,1,102.167,78.5Zm-10-1.333H101.5V67.833H92.166v9.334Zm10,9.334H91.5a0.666,0.666,0,0,1-.667-0.667V80.5a0.667,0.667,0,0,1,.667-0.667h10.667a0.666,0.666,0,0,1,.666.667v5.334A0.666,0.666,0,0,1,102.167,86.5Zm-10-1.333H101.5v-4H92.166v4Z" transform="translate(-90.844 -66.5)"/>
</svg>
